<svg xmlns="http://www.w3.org/2000/svg" width="21.296" height="25.674" viewBox="0 0 21.296 25.674">
  <path id="Path_3839" data-name="Path 3839" d="M1612.416,62.539V69.02a1.492,1.492,0,0,1-1.489,1.49h-.063a1.492,1.492,0,0,1-1.488-1.49V62.539a1.492,1.492,0,0,1,1.488-1.489h.063A1.5,1.5,0,0,1,1612.416,62.539Zm.713,8.98a1.367,1.367,0,0,0,1.37,1.365h1.462v3.5a1.489,1.489,0,0,0,1.49,1.489h.061a1.492,1.492,0,0,0,1.49-1.489v-3.5h2.046v3.5a1.492,1.492,0,0,0,1.488,1.489h.063a1.492,1.492,0,0,0,1.489-1.489v-3.5h1.463a1.37,1.37,0,0,0,1.369-1.365V61.29h-13.791Zm13.838-11.96c0,.136-.011.271-.02.406H1613.1c-.011-.135-.021-.27-.021-.406a5.884,5.884,0,0,1,3.509-5.18l-1.161-1.8a.245.245,0,0,1,.073-.339.24.24,0,0,1,.343.073l1.2,1.853a7.963,7.963,0,0,1,5.951,0l1.208-1.853a.236.236,0,0,1,.339-.073.246.246,0,0,1,.073.339l-1.162,1.8A5.882,5.882,0,0,1,1626.967,59.559Zm-9.1-2.532a.94.94,0,1,0-.94.945A.932.932,0,0,0,1617.863,57.027Zm6.312,0a.94.94,0,0,0-1.881,0,.94.94,0,1,0,1.881,0Zm5.009,4.024h-.063a1.492,1.492,0,0,0-1.489,1.489V69.02a1.5,1.5,0,0,0,1.489,1.49h.063a1.492,1.492,0,0,0,1.488-1.49V62.539A1.5,1.5,0,0,0,1629.184,61.05Z" transform="translate(-1609.376 -52.202)"/>
</svg>
