<svg xmlns="http://www.w3.org/2000/svg" xmlns:xlink="http://www.w3.org/1999/xlink" width="468.532" height="529.911" viewBox="0 0 468.532 529.911">
  <defs>
    <linearGradient id="linear-gradient" x1="1" y1="0.459" x2="0" y2="0.471" gradientUnits="objectBoundingBox">
      <stop offset="0" stop-color="#482080"/>
      <stop offset="0.539" stop-color="#2163b2"/>
      <stop offset="1" stop-color="#009cdc"/>
    </linearGradient>
    <filter id="Path_4033" x="158.125" y="0" width="271.927" height="493.97" filterUnits="userSpaceOnUse">
      <feOffset dy="3" input="SourceAlpha"/>
      <feGaussianBlur stdDeviation="6" result="blur"/>
      <feFlood flood-opacity="0.161"/>
      <feComposite operator="in" in2="blur"/>
      <feComposite in="SourceGraphic"/>
    </filter>
    <filter id="Path_4035" x="193.084" y="57.722" width="211.242" height="89.062" filterUnits="userSpaceOnUse">
      <feOffset dx="3" dy="3" input="SourceAlpha"/>
      <feGaussianBlur stdDeviation="2.5" result="blur-2"/>
      <feFlood flood-color="#e4d5d5" flood-opacity="0.302"/>
      <feComposite operator="in" in2="blur-2"/>
      <feComposite in="SourceGraphic"/>
    </filter>
  </defs>
  <g id="app-detail-img1" transform="translate(2271.391 -2452.119)">
    <g id="Group_1437" data-name="Group 1437">
      <path id="Path_3883" data-name="Path 3883" d="M0,0H412.327a50,50,0,0,1,50,50V206.968a65,65,0,0,1-65,65H0Z" transform="translate(-2265.186 2710.062)" fill="url(#linear-gradient)"/>
      <path id="Path_3884" data-name="Path 3884" d="M0,0H452.627V207.426a55,55,0,0,1-55,55H0Z" transform="translate(-2271.391 2703.7)" fill="#fff"/>
      <path id="Path_3894" data-name="Path 3894" d="M6.264,0A6.264,6.264,0,1,1,0,6.264,6.264,6.264,0,0,1,6.264,0Z" transform="translate(-2252.484 2911.592) rotate(90)" fill="#ebe8e8"/>
      <path id="Path_3891" data-name="Path 3891" d="M6.264,0A6.264,6.264,0,1,1,0,6.264,6.264,6.264,0,0,1,6.264,0Z" transform="translate(-2252.484 2882.881) rotate(90)" fill="#ebe8e8"/>
      <path id="Path_3895" data-name="Path 3895" d="M6.264,0A6.264,6.264,0,1,1,0,6.264,6.264,6.264,0,0,1,6.264,0Z" transform="translate(-2221.163 2911.592) rotate(90)" fill="#ebe8e8"/>
      <path id="Path_3892" data-name="Path 3892" d="M6.264,0A6.264,6.264,0,1,1,0,6.264,6.264,6.264,0,0,1,6.264,0Z" transform="translate(-2221.163 2882.881) rotate(90)" fill="#ebe8e8"/>
      <path id="Path_3896" data-name="Path 3896" d="M6.264,0A6.264,6.264,0,1,1,0,6.264,6.264,6.264,0,0,1,6.264,0Z" transform="translate(-2190.364 2911.592) rotate(90)" fill="#ebe8e8"/>
      <path id="Path_3893" data-name="Path 3893" d="M6.264,0A6.264,6.264,0,1,1,0,6.264,6.264,6.264,0,0,1,6.264,0Z" transform="translate(-2190.364 2882.881) rotate(90)" fill="#ebe8e8"/>
      <path id="Path_3888" data-name="Path 3888" d="M6.264,0A6.264,6.264,0,1,1,0,6.264,6.264,6.264,0,0,1,6.264,0Z" transform="translate(-2252.484 2854.592) rotate(90)" fill="#ebe8e8"/>
      <path id="Path_3885" data-name="Path 3885" d="M6.264,0A6.264,6.264,0,1,1,0,6.264,6.264,6.264,0,0,1,6.264,0Z" transform="translate(-2252.484 2825.881) rotate(90)" fill="#ebe8e8"/>
      <path id="Path_3889" data-name="Path 3889" d="M6.264,0A6.264,6.264,0,1,1,0,6.264,6.264,6.264,0,0,1,6.264,0Z" transform="translate(-2221.163 2854.592) rotate(90)" fill="#ebe8e8"/>
      <path id="Path_3886" data-name="Path 3886" d="M6.264,0A6.264,6.264,0,1,1,0,6.264,6.264,6.264,0,0,1,6.264,0Z" transform="translate(-2221.163 2825.881) rotate(90)" fill="#ebe8e8"/>
      <path id="Path_3890" data-name="Path 3890" d="M6.264,0A6.264,6.264,0,1,1,0,6.264,6.264,6.264,0,0,1,6.264,0Z" transform="translate(-2190.364 2854.592) rotate(90)" fill="#ebe8e8"/>
      <path id="Path_3887" data-name="Path 3887" d="M6.264,0A6.264,6.264,0,1,1,0,6.264,6.264,6.264,0,0,1,6.264,0Z" transform="translate(-2190.364 2825.881) rotate(90)" fill="#ebe8e8"/>
      <g transform="matrix(1, 0, 0, 1, -2271.39, 2452.12)" filter="url(#Path_4033)">
        <path id="Path_4033-2" data-name="Path 4033" d="M22,0H213.927a22,22,0,0,1,22,22V435.97a22,22,0,0,1-22,22H22a22,22,0,0,1-22-22V22A22,22,0,0,1,22,0Z" transform="translate(176.13 15)" fill="#072e7d"/>
      </g>
      <path id="Path_4034" data-name="Path 4034" d="M206.164,445H16.385A16.385,16.385,0,0,1,0,428.611V16.385A16.385,16.385,0,0,1,16.385,0H48.458l.975,1.249A14.166,14.166,0,0,1,51.95,6.637a9.994,9.994,0,0,0,9.618,7.753h98.589a9.993,9.993,0,0,0,9.619-7.753,14.191,14.191,0,0,1,2.517-5.388L173.269,0h32.9A16.385,16.385,0,0,1,222.55,16.385V428.611A16.385,16.385,0,0,1,206.164,445Z" transform="translate(-2088.807 2474.151)" fill="#fff"/>
      <g id="Group_567" data-name="Group 567" transform="translate(-2089.042 2703.978)">
        <g id="Group_1" data-name="Group 1" transform="translate(159.35 40.011)">
          <path id="Path_262" data-name="Path 262" d="M1463.016,2618.19v-29.427h-3.228v.029a3.46,3.46,0,0,0-2.174.994l-11.222,11.222a3.492,3.492,0,0,0,0,4.938l11.222,11.222a3.463,3.463,0,0,0,2.174.995v.028Z" transform="translate(-1445.369 -2587.316)" fill="#1a1818"/>
          <rect id="Rectangle_452" data-name="Rectangle 452" width="3.394" height="85.884" transform="translate(14.233 30.062)" fill="#1a1818"/>
          <path id="Path_263" data-name="Path 263" d="M3.491,0H19.362a3.491,3.491,0,0,1,3.491,3.491V19.362a3.491,3.491,0,0,1-3.491,3.491H3.491A3.491,3.491,0,0,1,0,19.362V3.491A3.491,3.491,0,0,1,3.491,0Z" transform="translate(1.297 16.159) rotate(-44.999)" fill="#1854a2"/>
          <g id="Group_254" data-name="Group 254" transform="translate(8.163 12.857)">
            <rect id="Rectangle_454" data-name="Rectangle 454" width="3.521" height="3.521" transform="translate(0 3.556)" fill="#fff"/>
            <rect id="Rectangle_455" data-name="Rectangle 455" width="3.521" height="3.521" transform="translate(7.041 3.556)" fill="#fff"/>
            <rect id="Rectangle_456" data-name="Rectangle 456" width="3.521" height="3.52" transform="translate(3.521)" fill="#fff"/>
            <rect id="Rectangle_457" data-name="Rectangle 457" width="3.521" height="3.521" transform="translate(14.082 3.556)" fill="#fff"/>
            <rect id="Rectangle_458" data-name="Rectangle 458" width="3.521" height="3.52" transform="translate(10.562)" fill="#fff"/>
          </g>
        </g>
        <g id="Group_2" data-name="Group 2" transform="translate(31.481 0)">
          <rect id="Rectangle_412" data-name="Rectangle 412" width="30.957" height="130.154" transform="translate(0 11.541)" fill="#122358"/>
          <rect id="Rectangle_413" data-name="Rectangle 413" width="45.136" height="130.154" transform="translate(27.026 11.541)" fill="#4c5fa1"/>
          <g id="Group_250" data-name="Group 250" transform="translate(33.784 17.351)">
            <rect id="Rectangle_414" data-name="Rectangle 414" width="11.924" height="1.704" fill="#fff"/>
            <rect id="Rectangle_415" data-name="Rectangle 415" width="11.924" height="1.704" transform="translate(0 4.583)" fill="#fff"/>
            <rect id="Rectangle_416" data-name="Rectangle 416" width="11.924" height="1.704" transform="translate(0 9.165)" fill="#fff"/>
            <rect id="Rectangle_417" data-name="Rectangle 417" width="11.924" height="1.704" transform="translate(0 13.748)" fill="#fff"/>
            <rect id="Rectangle_418" data-name="Rectangle 418" width="11.924" height="1.704" transform="translate(0 18.33)" fill="#fff"/>
            <rect id="Rectangle_419" data-name="Rectangle 419" width="11.924" height="1.704" transform="translate(0 22.913)" fill="#fff"/>
            <rect id="Rectangle_420" data-name="Rectangle 420" width="11.924" height="1.704" transform="translate(0 27.496)" fill="#fff"/>
            <rect id="Rectangle_421" data-name="Rectangle 421" width="11.924" height="1.704" transform="translate(0 32.078)" fill="#fff"/>
            <rect id="Rectangle_422" data-name="Rectangle 422" width="11.924" height="1.704" transform="translate(0 36.661)" fill="#fff"/>
            <rect id="Rectangle_423" data-name="Rectangle 423" width="11.924" height="1.704" transform="translate(0 41.243)" fill="#fff"/>
            <rect id="Rectangle_424" data-name="Rectangle 424" width="11.924" height="1.704" transform="translate(0 45.826)" fill="#fff"/>
            <rect id="Rectangle_425" data-name="Rectangle 425" width="11.924" height="1.704" transform="translate(0 50.409)" fill="#fff"/>
            <rect id="Rectangle_426" data-name="Rectangle 426" width="11.924" height="1.704" transform="translate(0 54.991)" fill="#fff"/>
            <rect id="Rectangle_427" data-name="Rectangle 427" width="11.924" height="1.704" transform="translate(0 59.574)" fill="#fff"/>
          </g>
          <g id="Group_251" data-name="Group 251" transform="translate(55.82 17.351)">
            <rect id="Rectangle_428" data-name="Rectangle 428" width="11.924" height="1.704" fill="#fff"/>
            <rect id="Rectangle_429" data-name="Rectangle 429" width="11.924" height="1.704" transform="translate(0 4.583)" fill="#fff"/>
            <rect id="Rectangle_430" data-name="Rectangle 430" width="11.924" height="1.704" transform="translate(0 9.165)" fill="#fff"/>
            <rect id="Rectangle_431" data-name="Rectangle 431" width="11.924" height="1.704" transform="translate(0 13.748)" fill="#fff"/>
            <rect id="Rectangle_432" data-name="Rectangle 432" width="11.924" height="1.704" transform="translate(0 18.33)" fill="#fff"/>
            <rect id="Rectangle_433" data-name="Rectangle 433" width="11.924" height="1.704" transform="translate(0 22.913)" fill="#fff"/>
            <rect id="Rectangle_434" data-name="Rectangle 434" width="11.924" height="1.704" transform="translate(0 27.496)" fill="#fff"/>
            <rect id="Rectangle_435" data-name="Rectangle 435" width="11.924" height="1.704" transform="translate(0 32.078)" fill="#fff"/>
            <rect id="Rectangle_436" data-name="Rectangle 436" width="11.924" height="1.704" transform="translate(0 36.661)" fill="#fff"/>
            <rect id="Rectangle_437" data-name="Rectangle 437" width="11.924" height="1.704" transform="translate(0 41.243)" fill="#fff"/>
            <rect id="Rectangle_438" data-name="Rectangle 438" width="11.924" height="1.704" transform="translate(0 45.826)" fill="#fff"/>
            <rect id="Rectangle_439" data-name="Rectangle 439" width="11.924" height="1.704" transform="translate(0 50.409)" fill="#fff"/>
            <rect id="Rectangle_440" data-name="Rectangle 440" width="11.924" height="1.704" transform="translate(0 54.991)" fill="#fff"/>
            <rect id="Rectangle_441" data-name="Rectangle 441" width="11.924" height="1.704" transform="translate(0 59.574)" fill="#fff"/>
          </g>
          <rect id="Rectangle_442" data-name="Rectangle 442" width="59.812" height="5.771" transform="translate(7.091 5.771)" fill="#122358"/>
          <rect id="Rectangle_443" data-name="Rectangle 443" width="49.516" height="5.771" transform="translate(12.274)" fill="#122358"/>
        </g>
        <g id="Group_3" data-name="Group 3" transform="translate(0 22.785)">
          <rect id="Rectangle_444" data-name="Rectangle 444" width="36.705" height="10.044" fill="#16654e"/>
          <rect id="Rectangle_445" data-name="Rectangle 445" width="39.606" height="109.486" transform="translate(5.7 9.425)" fill="#26a881"/>
          <rect id="Rectangle_446" data-name="Rectangle 446" width="10.656" height="109.486" transform="translate(0.36 9.425)" fill="#16654e"/>
          <rect id="Rectangle_447" data-name="Rectangle 447" width="1.616" height="109.268" transform="translate(18.257 9.425)" fill="#fff"/>
          <rect id="Rectangle_448" data-name="Rectangle 448" width="1.616" height="109.268" transform="translate(23.089 9.425)" fill="#fff"/>
          <rect id="Rectangle_449" data-name="Rectangle 449" width="1.616" height="109.268" transform="translate(27.676 9.425)" fill="#fff"/>
          <rect id="Rectangle_450" data-name="Rectangle 450" width="1.616" height="109.268" transform="translate(32.508 9.425)" fill="#fff"/>
          <rect id="Rectangle_451" data-name="Rectangle 451" width="1.616" height="109.268" transform="translate(37.001 9.425)" fill="#fff"/>
        </g>
        <g id="Group_4" data-name="Group 4" transform="translate(70.2 88.665)">
          <path id="Path_159" data-name="Path 159" d="M1433.96,1061.57a8.9,8.9,0,1,1-8.9-9.213A9.06,9.06,0,0,1,1433.96,1061.57Z" transform="translate(-1304.848 -1016.84)" fill="#1a1818"/>
          <path id="Path_160" data-name="Path 160" d="M1213.66,1061.57a8.9,8.9,0,1,1-8.9-9.213A9.06,9.06,0,0,1,1213.66,1061.57Z" transform="translate(-1148.259 -1016.84)" fill="#1a1818"/>
          <path id="Path_161" data-name="Path 161" d="M1056.658,951.179l-2.632-5.005,13.3-3.732Z" transform="translate(-1047.442 -938.712)" fill="#edeeef"/>
          <g id="Group_256" data-name="Group 256" transform="translate(0 0)">
            <path id="Path_162" data-name="Path 162" d="M1191.1,954.336c-6.186-6.862-18.821-7.994-22.506-10.242s-14.361-14.55-34.219-14.55c-6.317,0-22.374.341-34.483.341a56.028,56.028,0,0,0-20.269,3.388,41.3,41.3,0,0,0-8.3,4.3A56.97,56.97,0,0,1,1091.5,934.3a43.871,43.871,0,0,1,26.37,9.411l6.883,7.9s11.782.416,21.058,5.3c6.173,3.251,7.749,12.711,8.152,17.334,21.827-.032,38.921-.29,40.018-1C1197.138,971.209,1194.624,958.246,1191.1,954.336Z" transform="translate(-1059.734 -929.545)" fill="#fff"/>
            <path id="Path_163" data-name="Path 163" d="M1117.335,968.559c-9.276-4.886-21.058-5.3-21.058-5.3l-6.884-7.9a43.871,43.871,0,0,0-26.37-9.411,56.991,56.991,0,0,0-20.178,3.272,48.213,48.213,0,0,0-3.952,2.977c-3.932,3.264-3.948,5.957-4.474,11.485a35.441,35.441,0,0,1-2.9,9.723c-.7,1.524.167,5.094.929,6.829,1.08,2.46,4.032,5.093,6.45,5.093,18.433,0,56.285.615,86.592.57C1125.084,981.269,1123.508,971.81,1117.335,968.559Z" transform="translate(-1031.26 -941.191)" fill="#edeeef"/>
          </g>
          <path id="Path_164" data-name="Path 164" d="M1031.26,1054.145a10.115,10.115,0,0,0,1.974,5.791c1.975,2.347,2.369,3.377,6.12,3.377h122.992a4.659,4.659,0,0,0,4.515-4.584H1036.2A21.146,21.146,0,0,1,1031.26,1054.145Z" transform="translate(-1031.26 -1018.11)" fill="#1a1818"/>
          <path id="Path_165" data-name="Path 165" d="M1197.526,978.526h-13.688c-5.264,0-7.37,8.188-1.053,8.305s21.781-.12,21.781-.12Z" transform="translate(-1136.195 -964.361)" fill="#edeeef"/>
          <path id="Path_166" data-name="Path 166" d="M1089.066,942.882l-11.236-1.262-9.931,2.844v4.381Z" transform="translate(-1057.303 -938.128)" fill="#edeeef"/>
          <path id="Path_167" data-name="Path 167" d="M1042.767,979.51l4.621-4.188,1.233,2.888-6.439,6.361Z" transform="translate(-1039.023 -962.082)" fill="#1a1818"/>
          <g id="Group_257" data-name="Group 257" transform="translate(10.596 35.66)">
            <path id="Path_168" data-name="Path 168" d="M1085.7,1062.061a8.9,8.9,0,1,1-8.9-9.213A9.06,9.06,0,0,1,1085.7,1062.061Z" transform="translate(-1067.899 -1052.848)" fill="#1a1818"/>
            <ellipse id="Ellipse_42" data-name="Ellipse 42" cx="5.995" cy="5.995" rx="5.995" ry="5.995" transform="translate(2.903 3.218)" fill="#fff"/>
            <ellipse id="Ellipse_43" data-name="Ellipse 43" cx="2.892" cy="2.892" rx="2.892" ry="2.892" transform="translate(6.006 6.321)" fill="#1a1818"/>
          </g>
          <g id="Group_258" data-name="Group 258" transform="translate(70.248 35.598)">
            <path id="Path_169" data-name="Path 169" d="M1291.959,1061.846a8.9,8.9,0,1,1-8.9-9.213A9.06,9.06,0,0,1,1291.959,1061.846Z" transform="translate(-1274.162 -1052.633)" fill="#1a1818"/>
            <ellipse id="Ellipse_44" data-name="Ellipse 44" cx="5.995" cy="5.995" rx="5.995" ry="5.995" transform="translate(2.903 3.217)" fill="#fff"/>
            <path id="Path_170" data-name="Path 170" d="M1300.715,1077.381a2.892,2.892,0,1,1-2.892-2.892A2.892,2.892,0,0,1,1300.715,1077.381Z" transform="translate(-1288.925 -1068.168)" fill="#1a1818"/>
          </g>
          <path id="Path_171" data-name="Path 171" d="M1479.658,1022.13h4.9s-.7-6.2-3.217-6.862C1479.812,1016.574,1479.658,1022.13,1479.658,1022.13Z" transform="translate(-1349.979 -990.476)" fill="#c4c3c5"/>
          <path id="Path_172" data-name="Path 172" d="M1421.119,1047.13H1404.4c-.792,0-1.14,0-1.521,1.4-.322,1.181-1.173,4.752-1.173,4.752a1.531,1.531,0,0,0,1.521,1.667h19.335a1.532,1.532,0,0,0,1.46-1.982l-1.444-4.752A1.527,1.527,0,0,0,1421.119,1047.13Z" transform="translate(-1294.568 -1013.124)" fill="#1a1818"/>
          <path id="Path_173" data-name="Path 173" d="M1398.971,1021.19a20.5,20.5,0,0,0,1.547,2.665,4.215,4.215,0,0,0,4.146,2.17c2.665,0,9.674.1,11.549,0s2.848-.749,3.159-2.4c.221-1.171.494-2.439.494-2.439Z" transform="translate(-1292.627 -994.686)" fill="#1a1818"/>
          <path id="Path_174" data-name="Path 174" d="M1307.413,1015.2s1.469,5.983,7,6.591a81,81,0,0,0,12.833,0,7.136,7.136,0,0,0-5.725-5.669C1316.361,1014.932,1307.413,1015.2,1307.413,1015.2Z" transform="translate(-1227.548 -990.412)" fill="#c4c3c5"/>
          <path id="Path_175" data-name="Path 175" d="M1121.6,950.162c-.786-.886-1.528-1.691-2.306-2.409-3.914-3.612-8.733-4.974-24.542-2.781-8.064,1.119-13.793,6.861-13.793,6.861l1.147,2.092,2.285,4.168,43.527.609A44.675,44.675,0,0,0,1121.6,950.162Z" transform="translate(-1066.582 -939.759)" fill="#1a1818"/>
          <g id="Group_262" data-name="Group 262" transform="translate(16.671 26.676)">
            <g id="Group_261" data-name="Group 261">
              <g id="Group_259" data-name="Group 259">
                <rect id="Rectangle_459" data-name="Rectangle 459" width="2.489" height="2.489" transform="translate(2.502)" fill="#1a1818"/>
                <rect id="Rectangle_460" data-name="Rectangle 460" width="2.489" height="2.489" transform="translate(4.99 2.489)" fill="#1a1818"/>
                <rect id="Rectangle_461" data-name="Rectangle 461" width="2.489" height="2.489" transform="translate(0 2.489)" fill="#1a1818"/>
                <rect id="Rectangle_462" data-name="Rectangle 462" width="2.489" height="2.489" transform="translate(7.479)" fill="#1a1818"/>
                <rect id="Rectangle_463" data-name="Rectangle 463" width="2.489" height="2.489" transform="translate(9.968 2.489)" fill="#1a1818"/>
                <rect id="Rectangle_464" data-name="Rectangle 464" width="2.489" height="2.489" transform="translate(12.456)" fill="#1a1818"/>
                <rect id="Rectangle_465" data-name="Rectangle 465" width="2.489" height="2.489" transform="translate(14.945 2.489)" fill="#1a1818"/>
                <rect id="Rectangle_466" data-name="Rectangle 466" width="2.489" height="2.489" transform="translate(17.434)" fill="#1a1818"/>
                <rect id="Rectangle_467" data-name="Rectangle 467" width="2.489" height="2.489" transform="translate(22.411)" fill="#1a1818"/>
                <rect id="Rectangle_468" data-name="Rectangle 468" width="2.489" height="2.489" transform="translate(19.922 2.489)" fill="#1a1818"/>
              </g>
              <g id="Group_260" data-name="Group 260" transform="translate(24.9)">
                <rect id="Rectangle_469" data-name="Rectangle 469" width="2.489" height="2.489" transform="translate(0 2.489)" fill="#1a1818"/>
                <rect id="Rectangle_470" data-name="Rectangle 470" width="2.489" height="2.489" transform="translate(2.489)" fill="#1a1818"/>
                <rect id="Rectangle_471" data-name="Rectangle 471" width="2.489" height="2.489" transform="translate(4.977 2.489)" fill="#1a1818"/>
                <rect id="Rectangle_472" data-name="Rectangle 472" width="2.489" height="2.489" transform="translate(7.466)" fill="#1a1818"/>
                <rect id="Rectangle_473" data-name="Rectangle 473" width="2.489" height="2.489" transform="translate(9.955 2.489)" fill="#1a1818"/>
                <rect id="Rectangle_474" data-name="Rectangle 474" width="2.489" height="2.489" transform="translate(12.443)" fill="#1a1818"/>
                <rect id="Rectangle_475" data-name="Rectangle 475" width="2.489" height="2.489" transform="translate(17.421)" fill="#1a1818"/>
                <rect id="Rectangle_476" data-name="Rectangle 476" width="2.489" height="2.489" transform="translate(14.932 2.489)" fill="#1a1818"/>
                <rect id="Rectangle_477" data-name="Rectangle 477" width="2.489" height="2.489" transform="translate(19.909 2.489)" fill="#1a1818"/>
              </g>
            </g>
          </g>
          <path id="Path_176" data-name="Path 176" d="M1258.623,949.909a68.062,68.062,0,0,0-12.594-6.667c-12.117-.333-26.364.105-26.364.105l2.891,3.579,8.165,10.108,33.315-.333,2.38-.024A55,55,0,0,0,1258.623,949.909Z" transform="translate(-1165.178 -939.192)" fill="#1a1818"/>
          <path id="Path_177" data-name="Path 177" d="M1313.942,943.655c-1.015-.042-2.059-.076-3.118-.1a68.037,68.037,0,0,1,12.594,6.667,54.923,54.923,0,0,1,7.792,6.768l5.9-.059S1326.577,944.174,1313.942,943.655Z" transform="translate(-1229.973 -939.5)" fill="#c4c3c5"/>
          <rect id="Rectangle_478" data-name="Rectangle 478" width="13.688" height="3.4" transform="translate(111.871 36.035)" fill="#fff"/>
        </g>
        <rect id="Rectangle_18" data-name="Rectangle 18" width="223.344" height="28.57" transform="translate(0.082 141.492)" fill="#1e1e1e"/>
      </g>
      <path id="Path_4042" data-name="Path 4042" d="M.51,0A.116.116,0,0,1,.425-.035.116.116,0,0,1,.39-.12V-3.375a.127.127,0,0,1,.033-.09A.114.114,0,0,1,.51-3.5H.9a.149.149,0,0,1,.09.023.26.26,0,0,1,.055.057L2.48-1.18V-3.375a.127.127,0,0,1,.033-.09A.114.114,0,0,1,2.6-3.5h.42a.122.122,0,0,1,.09.035.122.122,0,0,1,.035.09v3.25a.122.122,0,0,1-.035.09A.116.116,0,0,1,3.025,0h-.39A.177.177,0,0,1,2.49-.08L1.055-2.27V-.12a.114.114,0,0,1-.035.088A.127.127,0,0,1,.93,0ZM5.27.05A1.52,1.52,0,0,1,4.21-.3a1.373,1.373,0,0,1-.4-1.025q0-.145-.005-.425t.005-.43A1.368,1.368,0,0,1,4.22-3.2,1.5,1.5,0,0,1,5.27-3.55,1.51,1.51,0,0,1,6.322-3.2a1.364,1.364,0,0,1,.413,1.02q.01.29.01.43t-.01.425A1.388,1.388,0,0,1,6.33-.3,1.52,1.52,0,0,1,5.27.05Zm0-.575a.718.718,0,0,0,.535-.2.9.9,0,0,0,.215-.618q.01-.3.01-.4t-.01-.405a.9.9,0,0,0-.215-.618.718.718,0,0,0-.535-.2.712.712,0,0,0-.53.2.9.9,0,0,0-.215.618q-.005.145-.005.405t.005.4a.9.9,0,0,0,.213.618A.71.71,0,0,0,5.27-.525ZM8.225,0A.116.116,0,0,1,8.14-.035.116.116,0,0,1,8.1-.12V-2.885H7.18a.116.116,0,0,1-.085-.035.116.116,0,0,1-.035-.085v-.37a.127.127,0,0,1,.033-.09A.114.114,0,0,1,7.18-3.5H9.73a.122.122,0,0,1,.09.035.122.122,0,0,1,.035.09v.37a.116.116,0,0,1-.035.085.122.122,0,0,1-.09.035H8.81V-.12a.116.116,0,0,1-.035.085A.122.122,0,0,1,8.685,0ZM10.48,0a.116.116,0,0,1-.085-.035A.116.116,0,0,1,10.36-.12V-3.38a.114.114,0,0,1,.035-.087A.12.12,0,0,1,10.48-3.5h.47a.118.118,0,0,1,.088.033.118.118,0,0,1,.033.087V-.12a.12.12,0,0,1-.033.085A.114.114,0,0,1,10.95,0Zm1.495,0a.116.116,0,0,1-.085-.035.116.116,0,0,1-.035-.085V-3.375a.127.127,0,0,1,.032-.09.114.114,0,0,1,.088-.035h2.17a.122.122,0,0,1,.09.035.122.122,0,0,1,.035.09v.35a.114.114,0,0,1-.035.087.127.127,0,0,1-.09.033H12.54v.95h1.505a.122.122,0,0,1,.09.035.122.122,0,0,1,.035.09v.35a.114.114,0,0,1-.035.087.127.127,0,0,1-.09.033H12.54V-.12a.114.114,0,0,1-.035.088.127.127,0,0,1-.09.032ZM14.98,0a.116.116,0,0,1-.085-.035A.116.116,0,0,1,14.86-.12V-3.38a.114.114,0,0,1,.035-.087A.12.12,0,0,1,14.98-3.5h.47a.118.118,0,0,1,.088.033.118.118,0,0,1,.033.087V-.12a.12.12,0,0,1-.033.085A.114.114,0,0,1,15.45,0ZM17.7.05a1.5,1.5,0,0,1-1.068-.355,1.384,1.384,0,0,1-.4-1q0-.135,0-.44t0-.45a1.377,1.377,0,0,1,.408-1A1.5,1.5,0,0,1,17.7-3.55a1.832,1.832,0,0,1,.775.152,1.222,1.222,0,0,1,.51.415,1.083,1.083,0,0,1,.19.592v.01a.085.085,0,0,1-.033.067.109.109,0,0,1-.073.028H18.6a.138.138,0,0,1-.09-.025.192.192,0,0,1-.05-.1.73.73,0,0,0-.265-.442.858.858,0,0,0-.5-.128q-.72,0-.75.805,0,.135,0,.415t0,.425q.03.805.75.805a.857.857,0,0,0,.5-.13.713.713,0,0,0,.263-.44.159.159,0,0,1,.048-.1.149.149,0,0,1,.092-.025h.475a.11.11,0,0,1,.078.03.084.084,0,0,1,.028.075,1.083,1.083,0,0,1-.19.593,1.222,1.222,0,0,1-.51.415A1.832,1.832,0,0,1,17.7.05ZM19.52,0a.1.1,0,0,1-.072-.03.1.1,0,0,1-.033-.075l.01-.045,1.2-3.225a.162.162,0,0,1,.175-.125h.545a.172.172,0,0,1,.175.125L22.73-.15a.152.152,0,0,1,0,.045.1.1,0,0,1-.03.075.1.1,0,0,1-.07.03H22.2a.149.149,0,0,1-.1-.03A.136.136,0,0,1,22.055-.1l-.235-.61H20.335L20.1-.1a.145.145,0,0,1-.145.1Zm2.125-1.28-.57-1.545L20.51-1.28ZM23.725,0a.116.116,0,0,1-.085-.035A.116.116,0,0,1,23.6-.12V-2.885H22.68a.116.116,0,0,1-.085-.035.116.116,0,0,1-.035-.085v-.37a.127.127,0,0,1,.032-.09A.114.114,0,0,1,22.68-3.5h2.55a.122.122,0,0,1,.09.035.122.122,0,0,1,.035.09v.37a.116.116,0,0,1-.035.085.122.122,0,0,1-.09.035h-.92V-.12a.116.116,0,0,1-.035.085.122.122,0,0,1-.09.035ZM25.98,0a.116.116,0,0,1-.085-.035A.116.116,0,0,1,25.86-.12V-3.38a.114.114,0,0,1,.035-.087A.12.12,0,0,1,25.98-3.5h.47a.118.118,0,0,1,.087.033.118.118,0,0,1,.033.087V-.12a.12.12,0,0,1-.033.085A.114.114,0,0,1,26.45,0ZM28.7.05A1.52,1.52,0,0,1,27.64-.3a1.373,1.373,0,0,1-.4-1.025q0-.145,0-.425t0-.43a1.368,1.368,0,0,1,.41-1.02A1.5,1.5,0,0,1,28.7-3.55a1.51,1.51,0,0,1,1.052.355,1.364,1.364,0,0,1,.413,1.02q.01.29.01.43t-.01.425A1.388,1.388,0,0,1,29.76-.3,1.52,1.52,0,0,1,28.7.05Zm0-.575a.718.718,0,0,0,.535-.2.9.9,0,0,0,.215-.618q.01-.3.01-.4t-.01-.405a.9.9,0,0,0-.215-.618.718.718,0,0,0-.535-.2.712.712,0,0,0-.53.2.9.9,0,0,0-.215.618q0,.145,0,.405t0,.4a.9.9,0,0,0,.212.618A.71.71,0,0,0,28.7-.525ZM30.95,0a.116.116,0,0,1-.085-.035A.116.116,0,0,1,30.83-.12V-3.375a.127.127,0,0,1,.033-.09A.114.114,0,0,1,30.95-3.5h.385a.149.149,0,0,1,.09.023.26.26,0,0,1,.055.057l1.44,2.24V-3.375a.127.127,0,0,1,.032-.09A.114.114,0,0,1,33.04-3.5h.42a.122.122,0,0,1,.09.035.122.122,0,0,1,.035.09v3.25a.122.122,0,0,1-.035.09A.116.116,0,0,1,33.465,0h-.39a.177.177,0,0,1-.145-.08L31.5-2.27V-.12a.114.114,0,0,1-.035.088A.127.127,0,0,1,31.37,0Zm4.63.05a1.962,1.962,0,0,1-.765-.135A1.144,1.144,0,0,1,34.33-.44a.833.833,0,0,1-.175-.475.1.1,0,0,1,.03-.075.1.1,0,0,1,.075-.03H34.7A.161.161,0,0,1,34.8-1a.231.231,0,0,1,.063.073.51.51,0,0,0,.23.285.9.9,0,0,0,.49.115.987.987,0,0,0,.535-.117.37.37,0,0,0,.18-.328A.307.307,0,0,0,36.2-1.2a.755.755,0,0,0-.275-.155q-.182-.065-.542-.16a2.082,2.082,0,0,1-.862-.373.823.823,0,0,1-.272-.663.876.876,0,0,1,.157-.515,1.052,1.052,0,0,1,.455-.355,1.717,1.717,0,0,1,.693-.13,1.616,1.616,0,0,1,.71.145,1.187,1.187,0,0,1,.458.363.8.8,0,0,1,.167.432.1.1,0,0,1-.03.075.1.1,0,0,1-.075.03H36.32a.145.145,0,0,1-.145-.1.405.405,0,0,0-.2-.268.771.771,0,0,0-.42-.107.8.8,0,0,0-.44.105.342.342,0,0,0-.16.3.333.333,0,0,0,.08.23.673.673,0,0,0,.252.16,4.287,4.287,0,0,0,.5.155,3.458,3.458,0,0,1,.7.225.922.922,0,0,1,.388.315A.866.866,0,0,1,37-1a.905.905,0,0,1-.178.558,1.1,1.1,0,0,1-.5.363A2.045,2.045,0,0,1,35.58.05Z" transform="translate(-1955.323 2907.16)" fill="#5a5b5e"/>
      <path id="Path_4043" data-name="Path 4043" d="M.51,0A.116.116,0,0,1,.425-.035.116.116,0,0,1,.39-.12V-3.375a.127.127,0,0,1,.033-.09A.114.114,0,0,1,.51-3.5H1.85a1.449,1.449,0,0,1,.945.283,1.007,1.007,0,0,1,.345.828,1,1,0,0,1-.342.822,1.465,1.465,0,0,1-.948.278H1.105V-.12a.12.12,0,0,1-.033.085A.114.114,0,0,1,.985,0ZM1.825-1.845a.65.65,0,0,0,.445-.138.516.516,0,0,0,.155-.408.545.545,0,0,0-.15-.408.618.618,0,0,0-.45-.148H1.1v1.1ZM3.8,0A.116.116,0,0,1,3.72-.035.116.116,0,0,1,3.685-.12V-3.375a.127.127,0,0,1,.033-.09A.114.114,0,0,1,3.8-3.5H5.1a1.467,1.467,0,0,1,.957.285.988.988,0,0,1,.347.81,1.024,1.024,0,0,1-.177.613.988.988,0,0,1-.493.358L6.465-.16a.124.124,0,0,1,.015.055.1.1,0,0,1-.032.075A.1.1,0,0,1,6.375,0H5.92A.188.188,0,0,1,5.8-.035a.33.33,0,0,1-.077-.1L5.075-1.32H4.38v1.2a.12.12,0,0,1-.033.085A.114.114,0,0,1,4.26,0Zm1.28-1.885a.664.664,0,0,0,.452-.135.493.493,0,0,0,.153-.39.509.509,0,0,0-.153-.4.648.648,0,0,0-.452-.14h-.7v1.06ZM8.385.05A1.52,1.52,0,0,1,7.325-.3a1.373,1.373,0,0,1-.4-1.025q-.005-.145-.005-.425t.005-.43a1.368,1.368,0,0,1,.41-1.02,1.5,1.5,0,0,1,1.05-.355A1.51,1.51,0,0,1,9.438-3.2a1.364,1.364,0,0,1,.413,1.02q.01.29.01.43t-.01.425A1.388,1.388,0,0,1,9.445-.3,1.52,1.52,0,0,1,8.385.05Zm0-.575a.718.718,0,0,0,.535-.2.9.9,0,0,0,.215-.618q.01-.3.01-.4t-.01-.405a.9.9,0,0,0-.215-.618.718.718,0,0,0-.535-.2.712.712,0,0,0-.53.2.9.9,0,0,0-.215.618q-.005.145-.005.405t.005.4a.9.9,0,0,0,.213.618A.71.71,0,0,0,8.385-.525ZM10.635,0a.116.116,0,0,1-.085-.035.116.116,0,0,1-.035-.085V-3.375a.127.127,0,0,1,.032-.09.114.114,0,0,1,.088-.035h2.17a.122.122,0,0,1,.09.035.122.122,0,0,1,.035.09v.35a.114.114,0,0,1-.035.087.127.127,0,0,1-.09.033H11.2v.95H12.7a.122.122,0,0,1,.09.035.122.122,0,0,1,.035.09v.35a.114.114,0,0,1-.035.087.127.127,0,0,1-.09.033H11.2V-.12a.114.114,0,0,1-.035.088.127.127,0,0,1-.09.032ZM13.64,0a.116.116,0,0,1-.085-.035A.116.116,0,0,1,13.52-.12V-3.38a.114.114,0,0,1,.035-.087A.12.12,0,0,1,13.64-3.5h.47a.118.118,0,0,1,.087.033.118.118,0,0,1,.033.087V-.12a.12.12,0,0,1-.033.085A.114.114,0,0,1,14.11,0Zm1.495,0a.116.116,0,0,1-.085-.035.116.116,0,0,1-.035-.085V-3.38a.114.114,0,0,1,.035-.087.12.12,0,0,1,.085-.033H15.6a.118.118,0,0,1,.087.033.118.118,0,0,1,.033.087V-.6h1.585a.122.122,0,0,1,.09.035.122.122,0,0,1,.035.09v.35a.114.114,0,0,1-.035.088.127.127,0,0,1-.09.032Zm2.9,0a.116.116,0,0,1-.085-.035.116.116,0,0,1-.035-.085V-3.375a.127.127,0,0,1,.033-.09.114.114,0,0,1,.087-.035h2.2a.122.122,0,0,1,.09.035.122.122,0,0,1,.035.09v.33a.114.114,0,0,1-.035.087.127.127,0,0,1-.09.033H18.59v.885h1.535a.127.127,0,0,1,.09.033.114.114,0,0,1,.035.088v.31a.114.114,0,0,1-.035.088.127.127,0,0,1-.09.033H18.59v.915h1.685a.122.122,0,0,1,.09.035.122.122,0,0,1,.035.09v.33a.114.114,0,0,1-.035.088.127.127,0,0,1-.09.032Z" transform="translate(-1900.182 2907.16)" fill="#5a5b5e"/>
      <g id="Group_568" data-name="Group 568" transform="translate(-1895.026 2883.999)">
        <g id="Group_268" data-name="Group 268" transform="translate(0)">
          <g id="Group_265" data-name="Group 265" transform="translate(2.877)">
            <g id="Group_264" data-name="Group 264">
              <path id="Path_179" data-name="Path 179" d="M1479.582,1249.949h.091a2.628,2.628,0,0,0,2.008-.869,5.214,5.214,0,0,0,.895-3.557,2.907,2.907,0,0,0-1.382-2.583,3.161,3.161,0,0,0-1.533-.4h-.048a3.169,3.169,0,0,0-1.532.39,2.907,2.907,0,0,0-1.4,2.595,5.21,5.21,0,0,0,.894,3.557,2.618,2.618,0,0,0,2.006.869Zm-2.139-4.355c0-.008,0-.017,0-.023a2.072,2.072,0,0,1,2.165-2.261h.034a2.082,2.082,0,0,1,2.165,2.261.054.054,0,0,0,0,.023,4.51,4.51,0,0,1-.7,2.977,1.866,1.866,0,0,1-1.467.609h-.029a1.86,1.86,0,0,1-1.464-.609,4.535,4.535,0,0,1-.706-2.977Zm0,0" transform="translate(-1476.659 -1242.538)" fill="#5a5b5e"/>
            </g>
          </g>
          <g id="Group_267" data-name="Group 267" transform="translate(0 8.059)">
            <g id="Group_266" data-name="Group 266">
              <path id="Path_180" data-name="Path 180" d="M1480.391,1268.392v-.009c0-.023,0-.045,0-.071a2.233,2.233,0,0,0-1.29-2.3l-.028-.009a8.215,8.215,0,0,1-2.364-1.077.385.385,0,0,0-.441.63,8.873,8.873,0,0,0,2.6,1.187c.664.237.738.946.758,1.6a.592.592,0,0,0,0,.072,5.13,5.13,0,0,1-.06.88,11.374,11.374,0,0,1-10.046,0,4.888,4.888,0,0,1-.059-.88c0-.023,0-.045,0-.071.02-.649.094-1.358.758-1.595a8.955,8.955,0,0,0,2.6-1.188.384.384,0,0,0-.441-.63,8.134,8.134,0,0,1-2.364,1.077l-.028.008a2.239,2.239,0,0,0-1.29,2.3.531.531,0,0,1,0,.071v.009a4.385,4.385,0,0,0,.146,1.29.362.362,0,0,0,.148.179,12.032,12.032,0,0,0,11.12,0,.379.379,0,0,0,.148-.179,4.586,4.586,0,0,0,.136-1.287Zm0,0" transform="translate(-1468.693 -1264.85)" fill="#5a5b5e"/>
            </g>
          </g>
        </g>
      </g>
      <path id="Path_753" data-name="Path 753" d="M1330.265,1254.819a5.791,5.791,0,0,1-1.818-4.219v-2.328a3.765,3.765,0,0,0-2.209-3.421,5.01,5.01,0,0,0-.905-.315v-.149a1.295,1.295,0,0,0-2.589,0v.171a5.289,5.289,0,0,0-.814.3,3.916,3.916,0,0,0-2.292,3.418v2.33a5.744,5.744,0,0,1-1.737,4.219.259.259,0,0,0,.139.439l2.458.423c.458.08.879.145,1.28.2a2.56,2.56,0,0,0,4.618,0c.4-.053.819-.118,1.275-.2l2.456-.423a.26.26,0,0,0,.139-.439Zm-7-10.433a.777.777,0,0,1,1.554,0v.047a5.152,5.152,0,0,0-1.554.013Zm.824,12.427a2.075,2.075,0,0,1-1.663-.858,15.435,15.435,0,0,0,3.324,0,2.07,2.07,0,0,1-1.661.858Zm3.494-1.642c-.5.085-.952.154-1.383.21h0c-.189.024-.374.044-.554.063h-.006q-.246.025-.486.042l-.091.006c-.138.009-.274.017-.411.022l-.083,0c-.322.01-.64.01-.962,0l-.086,0c-.134-.005-.269-.012-.406-.022l-.1-.006c-.155-.011-.312-.024-.473-.04h-.017c-.179-.018-.363-.039-.551-.063h0c-.431-.054-.889-.124-1.388-.21l-1.984-.342a6.231,6.231,0,0,0,1.554-4.229v-2.328a3.391,3.391,0,0,1,1.991-2.949,4.742,4.742,0,0,1,.907-.307h.008a4.711,4.711,0,0,1,1.962-.016h.01a4.675,4.675,0,0,1,.991.324,3.288,3.288,0,0,1,1.905,2.95v2.33a6.3,6.3,0,0,0,1.635,4.229Zm0,0" transform="translate(-3259.091 1641.095)" fill="#4d4d4d" stroke="#4d4d4d" stroke-miterlimit="10" stroke-width="0.2"/>
      <path id="Path_4044" data-name="Path 4044" d="M.51,0A.116.116,0,0,1,.425-.035.116.116,0,0,1,.39-.12V-3.375a.127.127,0,0,1,.033-.09A.114.114,0,0,1,.51-3.5h2.2a.122.122,0,0,1,.09.035.122.122,0,0,1,.035.09v.33a.114.114,0,0,1-.035.087.127.127,0,0,1-.09.033H1.065v.885H2.6a.127.127,0,0,1,.09.033.114.114,0,0,1,.035.088v.31a.114.114,0,0,1-.035.088.127.127,0,0,1-.09.033H1.065v.915H2.75a.122.122,0,0,1,.09.035.122.122,0,0,1,.035.09v.33a.114.114,0,0,1-.035.088A.127.127,0,0,1,2.75,0ZM3.3,0A.1.1,0,0,1,3.23-.03.1.1,0,0,1,3.2-.105a.133.133,0,0,1,.015-.06l1.12-1.62-1.05-1.55a.115.115,0,0,1-.015-.06A.1.1,0,0,1,3.3-3.47a.1.1,0,0,1,.075-.03h.51a.187.187,0,0,1,.155.1l.735,1.08.74-1.08a.187.187,0,0,1,.155-.1h.485a.1.1,0,0,1,.075.03.1.1,0,0,1,.03.075.093.093,0,0,1-.02.06L5.195-1.785l1.12,1.62a.154.154,0,0,1,.02.06A.1.1,0,0,1,6.3-.03.1.1,0,0,1,6.23,0H5.7a.169.169,0,0,1-.15-.09l-.8-1.13L3.965-.09A.188.188,0,0,1,3.81,0ZM6.93,0a.116.116,0,0,1-.085-.035A.116.116,0,0,1,6.81-.12V-3.375a.127.127,0,0,1,.033-.09A.114.114,0,0,1,6.93-3.5H8.27a1.449,1.449,0,0,1,.945.283,1.007,1.007,0,0,1,.345.828,1,1,0,0,1-.342.822,1.465,1.465,0,0,1-.948.278H7.525V-.12a.12.12,0,0,1-.032.085A.114.114,0,0,1,7.405,0ZM8.245-1.845a.65.65,0,0,0,.445-.138.516.516,0,0,0,.155-.408.545.545,0,0,0-.15-.408.618.618,0,0,0-.45-.148h-.73v1.1ZM10.225,0a.116.116,0,0,1-.085-.035.116.116,0,0,1-.035-.085V-3.38a.114.114,0,0,1,.035-.087.12.12,0,0,1,.085-.033h.465a.118.118,0,0,1,.087.033.118.118,0,0,1,.033.087V-.6H12.4a.122.122,0,0,1,.09.035.122.122,0,0,1,.035.09v.35a.114.114,0,0,1-.035.088A.127.127,0,0,1,12.4,0ZM14.3.05A1.52,1.52,0,0,1,13.245-.3a1.373,1.373,0,0,1-.4-1.025q0-.145,0-.425t0-.43a1.368,1.368,0,0,1,.41-1.02A1.5,1.5,0,0,1,14.3-3.55a1.51,1.51,0,0,1,1.053.355,1.364,1.364,0,0,1,.413,1.02q.01.29.01.43t-.01.425A1.388,1.388,0,0,1,15.365-.3,1.52,1.52,0,0,1,14.3.05Zm0-.575a.718.718,0,0,0,.535-.2.9.9,0,0,0,.215-.618q.01-.3.01-.4t-.01-.405a.9.9,0,0,0-.215-.618.718.718,0,0,0-.535-.2.712.712,0,0,0-.53.2.9.9,0,0,0-.215.618q0,.145-.005.405t.005.4a.9.9,0,0,0,.213.618A.71.71,0,0,0,14.3-.525ZM16.555,0a.116.116,0,0,1-.085-.035.116.116,0,0,1-.035-.085V-3.375a.127.127,0,0,1,.033-.09.114.114,0,0,1,.087-.035h1.3a1.467,1.467,0,0,1,.958.285.988.988,0,0,1,.347.81,1.024,1.024,0,0,1-.177.613.988.988,0,0,1-.493.358l.73,1.275a.124.124,0,0,1,.015.055A.1.1,0,0,1,19.2-.03a.1.1,0,0,1-.073.03H18.67a.188.188,0,0,1-.122-.035.33.33,0,0,1-.077-.1L17.825-1.32H17.13v1.2a.12.12,0,0,1-.033.085A.114.114,0,0,1,17.01,0Zm1.28-1.885a.664.664,0,0,0,.452-.135.493.493,0,0,0,.153-.39.509.509,0,0,0-.153-.4.648.648,0,0,0-.452-.14h-.7v1.06ZM19.92,0a.116.116,0,0,1-.085-.035A.116.116,0,0,1,19.8-.12V-3.375a.127.127,0,0,1,.033-.09A.114.114,0,0,1,19.92-3.5h2.2a.122.122,0,0,1,.09.035.122.122,0,0,1,.035.09v.33a.114.114,0,0,1-.035.087.127.127,0,0,1-.09.033H20.475v.885H22.01a.127.127,0,0,1,.09.033.114.114,0,0,1,.035.088v.31a.114.114,0,0,1-.035.088.127.127,0,0,1-.09.033H20.475v.915H22.16a.122.122,0,0,1,.09.035.122.122,0,0,1,.035.09v.33a.114.114,0,0,1-.035.088A.127.127,0,0,1,22.16,0Z" transform="translate(-2078.292 2907.16)" fill="#294c9c"/>
      <path id="Path_754" data-name="Path 754" d="M881.666,1257.6l-3.423-3.424a6,6,0,1,0-.84.84l3.424,3.421a.593.593,0,0,0,.84-.837Zm-8.065-2.421a4.808,4.808,0,1,1,4.81-4.807,4.813,4.813,0,0,1-4.81,4.807Zm0,0" transform="translate(-2941.916 1639.813)" fill="#294c9c"/>
      <path id="Path_4045" data-name="Path 4045" d="M.51,0A.116.116,0,0,1,.425-.035.116.116,0,0,1,.39-.12V-3.38a.114.114,0,0,1,.035-.087A.12.12,0,0,1,.51-3.5H.98a.118.118,0,0,1,.087.033A.118.118,0,0,1,1.1-3.38V-.12a.12.12,0,0,1-.033.085A.114.114,0,0,1,.98,0Zm1.5,0A.116.116,0,0,1,1.92-.035.116.116,0,0,1,1.885-.12V-3.375a.127.127,0,0,1,.033-.09A.114.114,0,0,1,2.005-3.5H2.39a.149.149,0,0,1,.09.023.26.26,0,0,1,.055.057l1.44,2.24V-3.375a.127.127,0,0,1,.033-.09A.114.114,0,0,1,4.1-3.5h.42a.122.122,0,0,1,.09.035.122.122,0,0,1,.035.09v3.25a.122.122,0,0,1-.035.09A.116.116,0,0,1,4.52,0H4.13a.177.177,0,0,1-.145-.08L2.55-2.27V-.12a.114.114,0,0,1-.035.088A.127.127,0,0,1,2.425,0ZM5.54,0a.116.116,0,0,1-.085-.035A.116.116,0,0,1,5.42-.12V-3.375a.127.127,0,0,1,.033-.09A.114.114,0,0,1,5.54-3.5H6.99a1.275,1.275,0,0,1,.872.258.9.9,0,0,1,.287.7.753.753,0,0,1-.127.442.761.761,0,0,1-.3.263.834.834,0,0,1,.352.31.867.867,0,0,1,.142.49.967.967,0,0,1-.312.75A1.255,1.255,0,0,1,7.03,0ZM6.9-2.065a.562.562,0,0,0,.4-.125.435.435,0,0,0,.135-.335A.417.417,0,0,0,7.3-2.858a.585.585,0,0,0-.4-.118H6.115v.91ZM6.95-.53a.553.553,0,0,0,.405-.143A.487.487,0,0,0,7.5-1.035.493.493,0,0,0,7.355-1.4a.553.553,0,0,0-.405-.142H6.115V-.53Zm3.245.58A1.52,1.52,0,0,1,9.135-.3a1.373,1.373,0,0,1-.4-1.025q0-.145,0-.425t0-.43a1.368,1.368,0,0,1,.41-1.02,1.5,1.5,0,0,1,1.05-.355,1.51,1.51,0,0,1,1.053.355,1.364,1.364,0,0,1,.413,1.02q.01.29.01.43t-.01.425A1.388,1.388,0,0,1,11.255-.3,1.52,1.52,0,0,1,10.195.05Zm0-.575a.718.718,0,0,0,.535-.2.9.9,0,0,0,.215-.618q.01-.3.01-.4t-.01-.405a.9.9,0,0,0-.215-.618.718.718,0,0,0-.535-.2.712.712,0,0,0-.53.2.9.9,0,0,0-.215.618q0,.145-.005.405t.005.4a.9.9,0,0,0,.213.618A.71.71,0,0,0,10.195-.525Zm1.8.525a.1.1,0,0,1-.075-.03.1.1,0,0,1-.03-.075.133.133,0,0,1,.015-.06l1.12-1.62-1.05-1.55a.115.115,0,0,1-.015-.06.1.1,0,0,1,.03-.075.1.1,0,0,1,.075-.03h.51a.187.187,0,0,1,.155.1l.735,1.08.74-1.08a.187.187,0,0,1,.155-.1h.485a.1.1,0,0,1,.075.03.1.1,0,0,1,.03.075.093.093,0,0,1-.02.06l-1.045,1.55L15-.165a.154.154,0,0,1,.02.06.1.1,0,0,1-.033.075A.1.1,0,0,1,14.92,0h-.53a.169.169,0,0,1-.15-.09l-.8-1.13L12.655-.09A.188.188,0,0,1,12.5,0Z" transform="translate(-2029.492 2907.16)" fill="#5a5b5e"/>
      <path id="Path_4046" data-name="Path 4046" d="M1.28,0A.116.116,0,0,1,1.2-.035.116.116,0,0,1,1.16-.12V-2.885H.235A.116.116,0,0,1,.15-2.92a.116.116,0,0,1-.035-.085v-.37a.127.127,0,0,1,.032-.09A.114.114,0,0,1,.235-3.5h2.55a.122.122,0,0,1,.09.035.122.122,0,0,1,.035.09v.37a.116.116,0,0,1-.035.085.122.122,0,0,1-.09.035h-.92V-.12a.116.116,0,0,1-.035.085A.122.122,0,0,1,1.74,0ZM3.535,0A.116.116,0,0,1,3.45-.035.116.116,0,0,1,3.415-.12V-3.375a.127.127,0,0,1,.033-.09A.114.114,0,0,1,3.535-3.5h1.3a1.467,1.467,0,0,1,.957.285.988.988,0,0,1,.348.81,1.024,1.024,0,0,1-.177.613.988.988,0,0,1-.493.358L6.195-.16a.124.124,0,0,1,.015.055.1.1,0,0,1-.033.075A.1.1,0,0,1,6.105,0H5.65a.188.188,0,0,1-.122-.035.33.33,0,0,1-.078-.1L4.8-1.32h-.7v1.2a.12.12,0,0,1-.032.085A.114.114,0,0,1,3.99,0Zm1.28-1.885a.664.664,0,0,0,.452-.135.493.493,0,0,0,.153-.39.509.509,0,0,0-.153-.4.648.648,0,0,0-.452-.14H4.11v1.06ZM6.9,0a.116.116,0,0,1-.085-.035A.116.116,0,0,1,6.78-.12V-3.38a.114.114,0,0,1,.035-.087A.12.12,0,0,1,6.9-3.5h.47a.118.118,0,0,1,.088.033.118.118,0,0,1,.032.087V-.12a.12.12,0,0,1-.032.085A.114.114,0,0,1,7.37,0ZM8.395,0A.116.116,0,0,1,8.31-.035.116.116,0,0,1,8.275-.12V-3.375a.127.127,0,0,1,.033-.09A.114.114,0,0,1,8.395-3.5h1.34a1.449,1.449,0,0,1,.945.283,1.007,1.007,0,0,1,.345.828,1,1,0,0,1-.342.822,1.465,1.465,0,0,1-.948.278H8.99V-.12a.12.12,0,0,1-.033.085A.114.114,0,0,1,8.87,0ZM9.71-1.845a.65.65,0,0,0,.445-.138.516.516,0,0,0,.155-.408.545.545,0,0,0-.15-.408.618.618,0,0,0-.45-.148H8.98v1.1ZM12.785.05a1.962,1.962,0,0,1-.765-.135,1.144,1.144,0,0,1-.485-.355.833.833,0,0,1-.175-.475.1.1,0,0,1,.03-.075.1.1,0,0,1,.075-.03h.445A.161.161,0,0,1,12-1a.231.231,0,0,1,.063.073.51.51,0,0,0,.23.285.9.9,0,0,0,.49.115.987.987,0,0,0,.535-.117A.37.37,0,0,0,13.5-.97a.307.307,0,0,0-.093-.23.755.755,0,0,0-.275-.155q-.183-.065-.543-.16a2.082,2.082,0,0,1-.863-.373.823.823,0,0,1-.273-.663.876.876,0,0,1,.158-.515,1.052,1.052,0,0,1,.455-.355,1.717,1.717,0,0,1,.693-.13,1.616,1.616,0,0,1,.71.145,1.187,1.187,0,0,1,.458.363.8.8,0,0,1,.167.432.1.1,0,0,1-.03.075.1.1,0,0,1-.075.03h-.465a.145.145,0,0,1-.145-.1.405.405,0,0,0-.2-.268.771.771,0,0,0-.42-.107.8.8,0,0,0-.44.105.342.342,0,0,0-.16.3.333.333,0,0,0,.08.23.673.673,0,0,0,.252.16,4.287,4.287,0,0,0,.5.155,3.458,3.458,0,0,1,.7.225.922.922,0,0,1,.388.315A.866.866,0,0,1,14.2-1a.905.905,0,0,1-.178.558,1.1,1.1,0,0,1-.5.363A2.045,2.045,0,0,1,12.785.05Z" transform="translate(-1987.748 2907.16)" fill="#5a5b5e"/>
      <path id="Path_755" data-name="Path 755" d="M1028.423,1243.755h-13.252a1.689,1.689,0,0,0-1.687,1.688v8.457a1.69,1.69,0,0,0,1.687,1.688h4.646l1.013,1.754a1.045,1.045,0,0,0,1.935,0l1.012-1.754h4.646a1.69,1.69,0,0,0,1.688-1.688v-8.457A1.69,1.69,0,0,0,1028.423,1243.755Zm1.013,10.145a1.014,1.014,0,0,1-1.013,1.013h-5.035l-.39.675-.817,1.416c-.229.4-.535.4-.766,0l-.818-1.416-.39-.675h-5.036a1.014,1.014,0,0,1-1.012-1.013v-8.457a1.014,1.014,0,0,1,1.012-1.012h13.252a1.014,1.014,0,0,1,1.013,1.012Z" transform="translate(-3043.144 1640.432)" fill="#4d4d4d"/>
      <path id="Path_756" data-name="Path 756" d="M1170.02,1242.42a6.833,6.833,0,0,0-6.83,6.812,7.869,7.869,0,0,0,.245,2.119l-.92-.535a.478.478,0,1,0-.481.825l2.156,1.257s.01,0,.014.005a.529.529,0,0,0,.072.03.417.417,0,0,0,.05.016.54.54,0,0,0,.061.008c.015,0,.03.006.045.006s.015,0,.024,0h.023c.012,0,.022-.007.033-.008a.627.627,0,0,0,.067-.016l.054-.022.057-.033a.556.556,0,0,0,.049-.036.544.544,0,0,0,.046-.046.433.433,0,0,0,.038-.049c.005-.009.015-.016.021-.025s0-.016.007-.023.017-.025.023-.039l.857-2.123a.478.478,0,1,0-.886-.358l-.44,1.09a7.063,7.063,0,0,1-.259-2.021,5.875,5.875,0,1,1,5.874,5.874.478.478,0,0,0,0,.956,6.831,6.831,0,1,0,0-13.662Zm0,0,.005,8.163a.364.364,0,0,0,.125.025c.009,0,.017,0,.026,0a.384.384,0,0,0,.134-.026.38.38,0,0,0,.036-.016.412.412,0,0,0,.09-.061c.007-.006.014-.008.021-.013l2.474-2.476a.4.4,0,0,0-.56-.561l-2.288,2.287-2.053-.859a.4.4,0,0,0-.306.732l2.3.963Zm-.188-.413" transform="translate(-3149.486 1641.767)" fill="#5a5b5d"/>
      <g transform="matrix(1, 0, 0, 1, -2271.39, 2452.12)" filter="url(#Path_4035)">
        <g id="Path_4035-2" data-name="Path 4035" transform="translate(197.58 62.22)" fill="#fff">
          <path d="M 190.2424926757813 73.06194305419922 L 6.000013828277588 73.06194305419922 C 3.243013620376587 73.06194305419922 1.000013709068298 70.81894683837891 1.000013709068298 68.06194305419922 L 1.000013709068298 5.999996662139893 C 1.000013709068298 3.242996454238892 3.243013620376587 0.999996542930603 6.000013828277588 0.999996542930603 L 190.2424926757813 0.999996542930603 C 192.9994812011719 0.999996542930603 195.2424926757813 3.242996454238892 195.2424926757813 5.999996662139893 L 195.2424926757813 68.06194305419922 C 195.2424926757813 70.81894683837891 192.9994812011719 73.06194305419922 190.2424926757813 73.06194305419922 Z" stroke="none"/>
          <path d="M 6 2 C 3.794403076171875 2 2 3.794395446777344 2 6 L 2 68.06194305419922 C 2 70.26754760742188 3.794403076171875 72.06194305419922 6 72.06194305419922 L 190.2424774169922 72.06194305419922 C 192.4480743408203 72.06194305419922 194.2424774169922 70.26754760742188 194.2424774169922 68.06194305419922 L 194.2424774169922 6 C 194.2424774169922 3.794395446777344 192.4480743408203 2 190.2424774169922 2 L 6 2 M 6 0 L 190.2424774169922 0 C 193.5561828613281 0 196.2424774169922 2.686286926269531 196.2424774169922 6 L 196.2424774169922 68.06194305419922 C 196.2424774169922 71.37565612792969 193.5561828613281 74.06194305419922 190.2424774169922 74.06194305419922 L 6 74.06194305419922 C 2.686294555664063 74.06194305419922 0 71.37565612792969 0 68.06194305419922 L 0 6 C 0 2.686286926269531 2.686294555664063 0 6 0 Z" stroke="none" fill="#edeeef"/>
        </g>
      </g>
      <path id="Path_4036" data-name="Path 4036" d="M0,0H9.411V9.411H0Z" transform="translate(-2057.226 2564.805)" fill="#1a1818"/>
      <path id="Path_4037" data-name="Path 4037" d="M4.706,0A4.706,4.706,0,1,1,0,4.706,4.706,4.706,0,0,1,4.706,0Z" transform="translate(-2056.885 2527.288)" fill="#1a1818"/>
      <path id="Path_4038" data-name="Path 4038" d="M4.878-3.174H1.958V-.986H5.371V0H.723V-7.109H5.337v1H1.958V-4.15h2.92Zm1.162.493a3.141,3.141,0,0,1,.566-1.96,1.815,1.815,0,0,1,1.519-.74,1.724,1.724,0,0,1,1.357.586V-7.5h1.187V0H9.595L9.536-.547A1.749,1.749,0,0,1,8.115.1a1.8,1.8,0,0,1-1.5-.747A3.256,3.256,0,0,1,6.04-2.681Zm1.187.1a2.2,2.2,0,0,0,.31,1.257,1.006,1.006,0,0,0,.881.452,1.121,1.121,0,0,0,1.064-.649V-3.774a1.1,1.1,0,0,0-1.055-.635,1.013,1.013,0,0,0-.889.457A2.449,2.449,0,0,0,7.227-2.578Zm5.8-2.705.034.552a1.9,1.9,0,0,1,1.523-.649,1.46,1.46,0,0,1,1.45.811,1.874,1.874,0,0,1,1.621-.811,1.647,1.647,0,0,1,1.3.483,2.128,2.128,0,0,1,.437,1.426V0H18.2V-3.437a1.051,1.051,0,0,0-.22-.737.962.962,0,0,0-.728-.234.988.988,0,0,0-.662.217,1.146,1.146,0,0,0-.359.569L16.24,0H15.054V-3.477a.846.846,0,0,0-.952-.933,1.044,1.044,0,0,0-1.011.581V0H11.9V-5.283ZM20.386-2.69a3.115,3.115,0,0,1,.308-1.4,2.247,2.247,0,0,1,.864-.957,2.435,2.435,0,0,1,1.279-.334,2.308,2.308,0,0,1,1.736.688,2.708,2.708,0,0,1,.72,1.826l0,.278a3.143,3.143,0,0,1-.3,1.4,2.22,2.22,0,0,1-.859.952A2.453,2.453,0,0,1,22.847.1a2.292,2.292,0,0,1-1.79-.745,2.852,2.852,0,0,1-.671-1.985Zm1.187.1a2.129,2.129,0,0,0,.337,1.277,1.1,1.1,0,0,0,.938.461,1.083,1.083,0,0,0,.935-.469,2.351,2.351,0,0,0,.334-1.372,2.1,2.1,0,0,0-.344-1.27,1.1,1.1,0,0,0-.935-.469,1.089,1.089,0,0,0-.923.461A2.307,2.307,0,0,0,21.572-2.588Zm5.83-2.7.034.61a1.9,1.9,0,0,1,1.538-.708q1.65,0,1.68,1.89V0H29.468V-3.423a1.088,1.088,0,0,0-.217-.745.914.914,0,0,0-.71-.242,1.143,1.143,0,0,0-1.069.649V0H26.284V-5.283ZM33.35-6.567v1.284h.933V-4.4H33.35v2.949a.649.649,0,0,0,.12.437.555.555,0,0,0,.427.134,1.828,1.828,0,0,0,.415-.049v.918A2.922,2.922,0,0,1,33.53.1q-1.367,0-1.367-1.509V-4.4h-.869v-.879h.869V-6.567Zm1.47,3.877a3.115,3.115,0,0,1,.308-1.4,2.247,2.247,0,0,1,.864-.957,2.435,2.435,0,0,1,1.279-.334,2.308,2.308,0,0,1,1.736.688,2.708,2.708,0,0,1,.72,1.826l0,.278a3.143,3.143,0,0,1-.3,1.4,2.22,2.22,0,0,1-.859.952A2.453,2.453,0,0,1,37.28.1a2.292,2.292,0,0,1-1.79-.745,2.852,2.852,0,0,1-.671-1.985Zm1.187.1a2.129,2.129,0,0,0,.337,1.277,1.1,1.1,0,0,0,.938.461,1.083,1.083,0,0,0,.935-.469A2.351,2.351,0,0,0,38.55-2.69a2.1,2.1,0,0,0-.344-1.27,1.1,1.1,0,0,0-.935-.469,1.089,1.089,0,0,0-.923.461A2.307,2.307,0,0,0,36.006-2.588Zm5.83-2.7.034.61a1.9,1.9,0,0,1,1.538-.708q1.65,0,1.68,1.89V0H43.9V-3.423a1.088,1.088,0,0,0-.217-.745.914.914,0,0,0-.71-.242A1.143,1.143,0,0,0,41.9-3.76V0H40.718V-5.283ZM46.465,1.6l-.64-.381a3.45,3.45,0,0,0,.388-.774,2.309,2.309,0,0,0,.11-.671v-.923h1.069l0,.854A2.382,2.382,0,0,1,47.126.745,2.578,2.578,0,0,1,46.465,1.6Zm8.613-3.257H52.324L51.748,0H50.464l2.686-7.109h1.108L56.948,0H55.659Zm-2.407-1h2.061L53.7-5.6ZM57.754,0V-7.109H60.19a2.975,2.975,0,0,1,1.836.483,1.7,1.7,0,0,1,.63,1.44,1.535,1.535,0,0,1-.264.879,1.7,1.7,0,0,1-.771.605,1.569,1.569,0,0,1,.891.588,1.714,1.714,0,0,1,.315,1.038,1.893,1.893,0,0,1-.642,1.538A2.792,2.792,0,0,1,60.347,0Zm1.235-3.208V-.986h1.372a1.328,1.328,0,0,0,.908-.288,1.011,1.011,0,0,0,.327-.8,1.015,1.015,0,0,0-1.133-1.133Zm0-.908H60.2a1.4,1.4,0,0,0,.9-.261.9.9,0,0,0,.325-.74.907.907,0,0,0-.3-.762,1.516,1.516,0,0,0-.935-.234h-1.2Zm5.7,2.866a.678.678,0,0,1,.513.188.653.653,0,0,1,.181.471.63.63,0,0,1-.181.461.688.688,0,0,1-.513.183.69.69,0,0,1-.5-.181A.619.619,0,0,1,64-.591a.653.653,0,0,1,.181-.471A.671.671,0,0,1,64.688-1.25Z" transform="translate(-2041.811 2534.66)" fill="#1a1818"/>
      <path id="Path_4031" data-name="Path 4031" d="M-65.815-3.14H-68.8V0h-.937V-7.109h4.4v.767H-68.8v2.437h2.983ZM-63.369,0h-.9V-5.283h.9Zm-.977-6.685a.539.539,0,0,1,.134-.371.5.5,0,0,1,.4-.151.512.512,0,0,1,.4.151.534.534,0,0,1,.137.371.516.516,0,0,1-.137.366.521.521,0,0,1-.4.146.513.513,0,0,1-.4-.146A.521.521,0,0,1-64.346-6.685Zm3.276,1.4.029.664a1.925,1.925,0,0,1,1.582-.762q1.675,0,1.689,1.89V0h-.9V-3.5a1.216,1.216,0,0,0-.261-.845,1.047,1.047,0,0,0-.8-.273,1.3,1.3,0,0,0-.771.234,1.592,1.592,0,0,0-.518.615V0h-.9V-5.283Zm4.443,2.6a3.1,3.1,0,0,1,.576-1.956,1.822,1.822,0,0,1,1.509-.74,1.832,1.832,0,0,1,1.47.635V-7.5h.9V0H-53l-.044-.566A1.84,1.84,0,0,1-54.551.1a1.8,1.8,0,0,1-1.5-.752,3.13,3.13,0,0,1-.579-1.963Zm.9.1a2.343,2.343,0,0,0,.371,1.406,1.2,1.2,0,0,0,1.025.508,1.318,1.318,0,0,0,1.255-.771V-3.867a1.328,1.328,0,0,0-1.245-.747,1.205,1.205,0,0,0-1.035.513A2.58,2.58,0,0,0-55.723-2.583ZM-45.029,0a1.9,1.9,0,0,1-.127-.557A2.015,2.015,0,0,1-46.66.1a1.865,1.865,0,0,1-1.282-.442,1.43,1.43,0,0,1-.5-1.121,1.494,1.494,0,0,1,.627-1.282A2.958,2.958,0,0,1-46.05-3.2h.879v-.415a1.015,1.015,0,0,0-.283-.754,1.138,1.138,0,0,0-.835-.281,1.317,1.317,0,0,0-.811.244.719.719,0,0,0-.327.591h-.908a1.247,1.247,0,0,1,.281-.764,1.916,1.916,0,0,1,.762-.583,2.563,2.563,0,0,1,1.057-.215,2.089,2.089,0,0,1,1.431.457,1.647,1.647,0,0,1,.537,1.257v2.432a2.973,2.973,0,0,0,.186,1.157V0Zm-1.5-.688a1.588,1.588,0,0,0,.806-.22,1.329,1.329,0,0,0,.552-.571V-2.563h-.708q-1.66,0-1.66.972a.822.822,0,0,0,.283.664A1.089,1.089,0,0,0-46.528-.688Zm8.706-3.784a2.707,2.707,0,0,0-.444-.034,1.19,1.19,0,0,0-1.206.757V0h-.9V-5.283h.879l.015.61a1.407,1.407,0,0,1,1.26-.708.923.923,0,0,1,.4.068ZM-36.011,0h-.9V-5.283h.9Zm-.977-6.685a.539.539,0,0,1,.134-.371.5.5,0,0,1,.4-.151.512.512,0,0,1,.4.151.534.534,0,0,1,.137.371.516.516,0,0,1-.137.366.521.521,0,0,1-.4.146.513.513,0,0,1-.4-.146A.521.521,0,0,1-36.987-6.685Zm2.2,4a3.1,3.1,0,0,1,.576-1.956,1.822,1.822,0,0,1,1.509-.74,1.832,1.832,0,0,1,1.47.635V-7.5h.9V0h-.83L-31.2-.566A1.84,1.84,0,0,1-32.71.1a1.8,1.8,0,0,1-1.5-.752,3.13,3.13,0,0,1-.579-1.963Zm.9.1a2.343,2.343,0,0,0,.371,1.406,1.2,1.2,0,0,0,1.025.508A1.318,1.318,0,0,0-31.23-1.44V-3.867a1.328,1.328,0,0,0-1.245-.747,1.205,1.205,0,0,0-1.035.513A2.58,2.58,0,0,0-33.882-2.583ZM-26.733.1a2.308,2.308,0,0,1-1.748-.706A2.619,2.619,0,0,1-29.155-2.5v-.166a3.17,3.17,0,0,1,.3-1.4,2.343,2.343,0,0,1,.84-.967,2.112,2.112,0,0,1,1.169-.349,1.979,1.979,0,0,1,1.6.679,2.939,2.939,0,0,1,.571,1.943v.376h-3.579A1.878,1.878,0,0,0-27.8-1.121a1.435,1.435,0,0,0,1.111.481,1.573,1.573,0,0,0,.811-.2,2.037,2.037,0,0,0,.581-.518l.552.43A2.219,2.219,0,0,1-26.733.1Zm-.112-4.736a1.2,1.2,0,0,0-.918.4,1.934,1.934,0,0,0-.459,1.116h2.646v-.068a1.721,1.721,0,0,0-.371-1.067A1.134,1.134,0,0,0-26.846-4.639ZM-20.552-1.4a.665.665,0,0,0-.276-.569,2.655,2.655,0,0,0-.962-.349,4.548,4.548,0,0,1-1.089-.352,1.549,1.549,0,0,1-.6-.488,1.168,1.168,0,0,1-.193-.674,1.37,1.37,0,0,1,.549-1.1,2.145,2.145,0,0,1,1.4-.449,2.208,2.208,0,0,1,1.458.464A1.473,1.473,0,0,1-19.7-3.73h-.908a.815.815,0,0,0-.315-.64,1.18,1.18,0,0,0-.793-.269,1.235,1.235,0,0,0-.771.215.676.676,0,0,0-.278.562.548.548,0,0,0,.259.493,3.184,3.184,0,0,0,.935.317,4.872,4.872,0,0,1,1.1.361,1.6,1.6,0,0,1,.623.505,1.243,1.243,0,0,1,.2.72A1.352,1.352,0,0,1-20.215-.33,2.376,2.376,0,0,1-21.685.1a2.66,2.66,0,0,1-1.123-.225,1.827,1.827,0,0,1-.764-.627,1.512,1.512,0,0,1-.276-.872h.9a.935.935,0,0,0,.364.72,1.411,1.411,0,0,0,.9.266,1.457,1.457,0,0,0,.823-.208A.638.638,0,0,0-20.552-1.4Zm2.983-3.242a1.921,1.921,0,0,1,1.563-.737q1.675,0,1.689,1.89V0h-.9V-3.5a1.216,1.216,0,0,0-.261-.845,1.047,1.047,0,0,0-.8-.273,1.3,1.3,0,0,0-.771.234,1.592,1.592,0,0,0-.518.615V0h-.9V-7.5h.9ZM-9.7,0a1.9,1.9,0,0,1-.127-.557,2.015,2.015,0,0,1-1.5.654,1.865,1.865,0,0,1-1.282-.442,1.43,1.43,0,0,1-.5-1.121,1.494,1.494,0,0,1,.627-1.282A2.958,2.958,0,0,1-10.723-3.2h.879v-.415a1.015,1.015,0,0,0-.283-.754,1.138,1.138,0,0,0-.835-.281,1.317,1.317,0,0,0-.811.244.719.719,0,0,0-.327.591h-.908a1.247,1.247,0,0,1,.281-.764,1.916,1.916,0,0,1,.762-.583,2.563,2.563,0,0,1,1.057-.215,2.089,2.089,0,0,1,1.431.457A1.647,1.647,0,0,1-8.94-3.667v2.432A2.973,2.973,0,0,0-8.755-.078V0Zm-1.5-.688a1.588,1.588,0,0,0,.806-.22,1.329,1.329,0,0,0,.552-.571V-2.563h-.708q-1.66,0-1.66.972a.822.822,0,0,0,.283.664A1.089,1.089,0,0,0-11.2-.688Zm6.23-3.784a2.707,2.707,0,0,0-.444-.034,1.19,1.19,0,0,0-1.206.757V0h-.9V-5.283h.879l.015.61a1.407,1.407,0,0,1,1.26-.708.923.923,0,0,1,.4.068ZM-1.948.1A2.308,2.308,0,0,1-3.7-.608,2.619,2.619,0,0,1-4.37-2.5v-.166a3.17,3.17,0,0,1,.3-1.4,2.343,2.343,0,0,1,.84-.967,2.112,2.112,0,0,1,1.169-.349,1.979,1.979,0,0,1,1.6.679A2.939,2.939,0,0,1,.112-2.759v.376H-3.467A1.878,1.878,0,0,0-3.01-1.121,1.435,1.435,0,0,0-1.9-.64a1.573,1.573,0,0,0,.811-.2,2.037,2.037,0,0,0,.581-.518l.552.43A2.219,2.219,0,0,1-1.948.1Zm-.112-4.736a1.2,1.2,0,0,0-.918.4,1.934,1.934,0,0,0-.459,1.116H-.791v-.068A1.721,1.721,0,0,0-1.162-4.26,1.134,1.134,0,0,0-2.061-4.639ZM4.858-6.562v1.279h.986v.7H4.858V-1.3a.733.733,0,0,0,.132.477.555.555,0,0,0,.449.159,2.187,2.187,0,0,0,.43-.059V0a2.634,2.634,0,0,1-.693.1,1.125,1.125,0,0,1-.913-.366,1.573,1.573,0,0,1-.308-1.04V-4.585H2.993v-.7h.962V-6.562Zm1.7,3.872a3.121,3.121,0,0,1,.305-1.4,2.277,2.277,0,0,1,.85-.957A2.313,2.313,0,0,1,8.96-5.381a2.228,2.228,0,0,1,1.746.747,2.874,2.874,0,0,1,.667,1.987v.063a3.148,3.148,0,0,1-.3,1.384,2.243,2.243,0,0,1-.845.955A2.339,2.339,0,0,1,8.97.1,2.222,2.222,0,0,1,7.229-.649a2.86,2.86,0,0,1-.667-1.978Zm.908.107a2.26,2.26,0,0,0,.408,1.411A1.3,1.3,0,0,0,8.97-.64a1.3,1.3,0,0,0,1.094-.54,2.472,2.472,0,0,0,.405-1.511A2.256,2.256,0,0,0,10.056-4.1a1.312,1.312,0,0,0-1.1-.54,1.3,1.3,0,0,0-1.079.532A2.453,2.453,0,0,0,7.471-2.583Zm8.364-2.7.029.664a1.925,1.925,0,0,1,1.582-.762q1.675,0,1.689,1.89V0h-.9V-3.5a1.216,1.216,0,0,0-.261-.845,1.047,1.047,0,0,0-.8-.273,1.3,1.3,0,0,0-.771.234,1.592,1.592,0,0,0-.518.615V0h-.9V-5.283ZM22.69.1a2.308,2.308,0,0,1-1.748-.706A2.619,2.619,0,0,1,20.269-2.5v-.166a3.17,3.17,0,0,1,.3-1.4,2.343,2.343,0,0,1,.84-.967,2.112,2.112,0,0,1,1.169-.349,1.979,1.979,0,0,1,1.6.679,2.939,2.939,0,0,1,.571,1.943v.376H21.172a1.878,1.878,0,0,0,.457,1.262,1.435,1.435,0,0,0,1.111.481,1.573,1.573,0,0,0,.811-.2,2.037,2.037,0,0,0,.581-.518l.552.43A2.219,2.219,0,0,1,22.69.1Zm-.112-4.736a1.2,1.2,0,0,0-.918.4A1.934,1.934,0,0,0,21.2-3.125h2.646v-.068a1.721,1.721,0,0,0-.371-1.067A1.134,1.134,0,0,0,22.578-4.639ZM29.058,0a1.9,1.9,0,0,1-.127-.557,2.015,2.015,0,0,1-1.5.654,1.865,1.865,0,0,1-1.282-.442,1.43,1.43,0,0,1-.5-1.121,1.494,1.494,0,0,1,.627-1.282A2.958,2.958,0,0,1,28.037-3.2h.879v-.415a1.015,1.015,0,0,0-.283-.754,1.138,1.138,0,0,0-.835-.281,1.317,1.317,0,0,0-.811.244.719.719,0,0,0-.327.591h-.908a1.247,1.247,0,0,1,.281-.764,1.916,1.916,0,0,1,.762-.583,2.563,2.563,0,0,1,1.057-.215,2.089,2.089,0,0,1,1.431.457,1.647,1.647,0,0,1,.537,1.257v2.432A2.973,2.973,0,0,0,30-.078V0Zm-1.5-.688a1.588,1.588,0,0,0,.806-.22,1.329,1.329,0,0,0,.552-.571V-2.563h-.708q-1.66,0-1.66.972a.822.822,0,0,0,.283.664A1.089,1.089,0,0,0,27.559-.688Zm6.23-3.784a2.707,2.707,0,0,0-.444-.034,1.19,1.19,0,0,0-1.206.757V0h-.9V-5.283h.879l.015.61a1.407,1.407,0,0,1,1.26-.708.923.923,0,0,1,.4.068Zm5.3,1.89a3.141,3.141,0,0,1-.557,1.946A1.779,1.779,0,0,1,37.041.1,1.842,1.842,0,0,1,35.493-.61L35.449,0h-.83V-7.5h.9v2.8a1.831,1.831,0,0,1,1.509-.679,1.789,1.789,0,0,1,1.511.728,3.236,3.236,0,0,1,.549,1.992Zm-.9-.1a2.441,2.441,0,0,0-.356-1.426,1.18,1.18,0,0,0-1.025-.5,1.326,1.326,0,0,0-1.284.83V-1.5a1.363,1.363,0,0,0,1.294.83,1.173,1.173,0,0,0,1.011-.5A2.6,2.6,0,0,0,38.188-2.686Zm3.77,1.362,1.23-3.96h.967L42.031.815q-.493,1.318-1.567,1.318l-.171-.015-.337-.063V1.323l.244.02a1.2,1.2,0,0,0,.715-.186,1.343,1.343,0,0,0,.422-.679l.2-.537L39.653-5.283h.986Zm7.6.684A1.3,1.3,0,0,0,50.4-.933a1.031,1.031,0,0,0,.4-.732h.854a1.638,1.638,0,0,1-.312.864,2.058,2.058,0,0,1-.769.654A2.219,2.219,0,0,1,49.556.1a2.176,2.176,0,0,1-1.716-.72,2.869,2.869,0,0,1-.637-1.97v-.151a3.181,3.181,0,0,1,.283-1.372,2.157,2.157,0,0,1,.813-.933,2.309,2.309,0,0,1,1.252-.332,2.119,2.119,0,0,1,1.477.532,1.9,1.9,0,0,1,.627,1.382H50.8a1.245,1.245,0,0,0-.388-.842,1.208,1.208,0,0,0-.862-.33,1.264,1.264,0,0,0-1.067.5,2.328,2.328,0,0,0-.378,1.433v.171a2.281,2.281,0,0,0,.376,1.406A1.27,1.27,0,0,0,49.556-.64Zm4.1.64h-.9V-5.283h.9Zm-.977-6.685a.539.539,0,0,1,.134-.371.5.5,0,0,1,.4-.151.512.512,0,0,1,.4.151.534.534,0,0,1,.137.371.516.516,0,0,1-.137.366.521.521,0,0,1-.4.146.513.513,0,0,1-.4-.146A.521.521,0,0,1,52.676-6.685Zm3.647.122v1.279h.986v.7h-.986V-1.3a.733.733,0,0,0,.132.477.555.555,0,0,0,.449.159,2.187,2.187,0,0,0,.43-.059V0a2.634,2.634,0,0,1-.693.1,1.125,1.125,0,0,1-.913-.366,1.573,1.573,0,0,1-.308-1.04V-4.585h-.962v-.7h.962V-6.562ZM59.346,0h-.9V-5.283h.9Zm-.977-6.685a.539.539,0,0,1,.134-.371.5.5,0,0,1,.4-.151.512.512,0,0,1,.4.151.534.534,0,0,1,.137.371.516.516,0,0,1-.137.366.521.521,0,0,1-.4.146.513.513,0,0,1-.4-.146A.521.521,0,0,1,58.369-6.685ZM62.983.1a2.308,2.308,0,0,1-1.748-.706A2.619,2.619,0,0,1,60.562-2.5v-.166a3.17,3.17,0,0,1,.3-1.4,2.343,2.343,0,0,1,.84-.967,2.112,2.112,0,0,1,1.169-.349,1.979,1.979,0,0,1,1.6.679,2.939,2.939,0,0,1,.571,1.943v.376H61.465a1.878,1.878,0,0,0,.457,1.262,1.435,1.435,0,0,0,1.111.481,1.573,1.573,0,0,0,.811-.2,2.037,2.037,0,0,0,.581-.518l.552.43A2.219,2.219,0,0,1,62.983.1Zm-.112-4.736a1.2,1.2,0,0,0-.918.4,1.934,1.934,0,0,0-.459,1.116h2.646v-.068A1.72,1.72,0,0,0,63.77-4.26,1.134,1.134,0,0,0,62.871-4.639ZM69.165-1.4a.665.665,0,0,0-.276-.569,2.655,2.655,0,0,0-.962-.349,4.548,4.548,0,0,1-1.089-.352,1.549,1.549,0,0,1-.6-.488,1.168,1.168,0,0,1-.193-.674,1.37,1.37,0,0,1,.549-1.1A2.145,2.145,0,0,1,68-5.381a2.208,2.208,0,0,1,1.458.464A1.473,1.473,0,0,1,70.02-3.73h-.908a.815.815,0,0,0-.315-.64A1.18,1.18,0,0,0,68-4.639a1.235,1.235,0,0,0-.771.215.676.676,0,0,0-.278.562.548.548,0,0,0,.259.493,3.184,3.184,0,0,0,.935.317,4.872,4.872,0,0,1,1.1.361,1.6,1.6,0,0,1,.623.505,1.243,1.243,0,0,1,.2.72A1.352,1.352,0,0,1,69.5-.33,2.376,2.376,0,0,1,68.032.1a2.66,2.66,0,0,1-1.123-.225,1.827,1.827,0,0,1-.764-.627,1.512,1.512,0,0,1-.276-.872h.9a.935.935,0,0,0,.364.72,1.411,1.411,0,0,0,.9.266,1.457,1.457,0,0,0,.823-.208A.638.638,0,0,0,69.165-1.4Z" transform="translate(-1983.752 2605.028)" fill="#1a1818"/>
      <path id="Path_4032" data-name="Path 4032" d="M6.3-1.758,7.393-7.109H8.618L6.978,0H5.8L4.443-5.19,3.062,0H1.875L.234-7.109H1.46l1.1,5.342L3.921-7.109H4.956Zm4.277-2.949a1.857,1.857,0,0,1,1.47-.674q1.689,0,1.714,1.929V0H12.573V-3.408a1.043,1.043,0,0,0-.237-.774.968.968,0,0,0-.7-.227,1.143,1.143,0,0,0-1.064.635V0H9.39V-7.5h1.187ZM17.285.1a2.455,2.455,0,0,1-1.829-.71,2.577,2.577,0,0,1-.7-1.892v-.146a3.17,3.17,0,0,1,.305-1.414,2.323,2.323,0,0,1,.857-.969,2.265,2.265,0,0,1,1.23-.347,2.074,2.074,0,0,1,1.667.688A2.911,2.911,0,0,1,19.4-2.744v.479H15.952a1.587,1.587,0,0,0,.437,1.035,1.312,1.312,0,0,0,.964.381,1.607,1.607,0,0,0,1.328-.659l.64.61a2.136,2.136,0,0,1-.847.735A2.652,2.652,0,0,1,17.285.1Zm-.142-4.526a1,1,0,0,0-.789.342,1.772,1.772,0,0,0-.383.952h2.261v-.088a1.442,1.442,0,0,0-.317-.9A.992.992,0,0,0,17.144-4.429Zm5.947.229a2.936,2.936,0,0,0-.483-.039,1.088,1.088,0,0,0-1.1.625V0H20.322V-5.283h1.133l.029.591a1.337,1.337,0,0,1,1.191-.688,1.111,1.111,0,0,1,.42.068ZM26.167.1a2.455,2.455,0,0,1-1.829-.71,2.577,2.577,0,0,1-.7-1.892v-.146a3.17,3.17,0,0,1,.305-1.414,2.323,2.323,0,0,1,.857-.969,2.265,2.265,0,0,1,1.23-.347,2.074,2.074,0,0,1,1.667.688,2.911,2.911,0,0,1,.588,1.948v.479H24.834a1.587,1.587,0,0,0,.437,1.035,1.312,1.312,0,0,0,.964.381,1.607,1.607,0,0,0,1.328-.659l.64.61a2.136,2.136,0,0,1-.847.735A2.652,2.652,0,0,1,26.167.1Zm-.142-4.526a1,1,0,0,0-.789.342,1.772,1.772,0,0,0-.383.952h2.261v-.088a1.442,1.442,0,0,0-.317-.9A.992.992,0,0,0,26.025-4.429Zm7.158-2.139v1.284h.933V-4.4h-.933v2.949a.649.649,0,0,0,.12.437.555.555,0,0,0,.427.134,1.828,1.828,0,0,0,.415-.049v.918A2.922,2.922,0,0,1,33.364.1Q32,.1,32-1.411V-4.4h-.869v-.879H32V-6.567Zm1.47,3.877a3.115,3.115,0,0,1,.308-1.4,2.247,2.247,0,0,1,.864-.957A2.435,2.435,0,0,1,37.1-5.381a2.308,2.308,0,0,1,1.736.688,2.708,2.708,0,0,1,.72,1.826l0,.278a3.143,3.143,0,0,1-.3,1.4,2.22,2.22,0,0,1-.859.952A2.453,2.453,0,0,1,37.114.1a2.292,2.292,0,0,1-1.79-.745,2.852,2.852,0,0,1-.671-1.985Zm1.187.1a2.129,2.129,0,0,0,.337,1.277,1.1,1.1,0,0,0,.938.461,1.083,1.083,0,0,0,.935-.469,2.351,2.351,0,0,0,.334-1.372,2.1,2.1,0,0,0-.344-1.27,1.1,1.1,0,0,0-.935-.469,1.089,1.089,0,0,0-.923.461A2.307,2.307,0,0,0,35.84-2.588Zm8.32.5a2.743,2.743,0,0,1,.161-1.036,2.716,2.716,0,0,1,.637-.848,4.864,4.864,0,0,0,.6-.657,1.15,1.15,0,0,0,.2-.644.984.984,0,0,0-.227-.7.872.872,0,0,0-.667-.241.959.959,0,0,0-.676.236.827.827,0,0,0-.256.64H42.744A1.748,1.748,0,0,1,43.333-6.7a2.249,2.249,0,0,1,1.531-.5,2.2,2.2,0,0,1,1.531.5,1.785,1.785,0,0,1,.549,1.393A2.281,2.281,0,0,1,46.2-3.747l-.6.591a1.611,1.611,0,0,0-.332,1.07ZM44.077-.569a.622.622,0,0,1,.181-.465.666.666,0,0,1,.488-.178.663.663,0,0,1,.493.182.626.626,0,0,1,.181.46.615.615,0,0,1-.176.447.664.664,0,0,1-.5.18.656.656,0,0,1-.5-.18A.62.62,0,0,1,44.077-.569Z" transform="translate(-2041.811 2572.151)" fill="#96999c"/>
      <path id="Path_4039" data-name="Path 4039" d="M0,21.32V0" transform="translate(-2052.179 2540.505)" fill="none" stroke="#1a1818" stroke-width="1.5"/>
      <path id="Path_4040" data-name="Path 4040" d="M2.021,0A2.021,2.021,0,1,1,0,2.021,2.021,2.021,0,0,1,2.021,0Z" transform="translate(-2000.879 2476.294) rotate(90)" fill="#fff"/>
      <path id="Path_4041" data-name="Path 4041" d="M2.021,0H47.295a2.021,2.021,0,0,1,0,4.042H2.021A2.021,2.021,0,0,1,2.021,0Z" transform="translate(-1996.596 2476.294)" fill="#fff"/>
    </g>
  </g>
</svg>
