<svg xmlns="http://www.w3.org/2000/svg" xmlns:xlink="http://www.w3.org/1999/xlink" width="159" height="115" viewBox="0 0 159 115">
  <defs>
    <linearGradient id="linear-gradient" y1="0.5" x2="1" y2="0.5" gradientUnits="objectBoundingBox">
      <stop offset="0" stop-color="#009cdc"/>
      <stop offset="1" stop-color="#482080"/>
    </linearGradient>
  </defs>
  <g id="icon4" transform="translate(-5058 -931)">
    <rect id="Rectangle_1426" data-name="Rectangle 1426" width="159" height="115" transform="translate(5058 931)" fill="#fff"/>
    <g id="Group_1455" data-name="Group 1455" transform="translate(4854 -305.376)">
      <g id="Group_1346" data-name="Group 1346" transform="translate(0 -269)">
        <g id="Group_1344" data-name="Group 1344" transform="translate(234 1513.376)">
          <path id="Path_3812" data-name="Path 3812" d="M139.709,2322.155a23.858,23.858,0,0,0-13.515-21.488v18.339l-10.366,6.664-10.366-6.664v-18.339a23.862,23.862,0,0,0-1.111,42.433v31.7a38.747,38.747,0,0,1,22.953-.53V2343.1A23.873,23.873,0,0,0,139.709,2322.155Z" transform="translate(-66.05 -2279.638)" fill="url(#linear-gradient)"/>
          <path id="Path_3813" data-name="Path 3813" d="M123.965,2391.424a38.835,38.835,0,0,1,4.668.292v-19.858a5.531,5.531,0,1,0-11.062,0v20.1A38.982,38.982,0,0,1,123.965,2391.424Z" transform="translate(-73.324 -2298.278)" fill="#fff"/>
          <path id="Path_3814" data-name="Path 3814" d="M145.061,2310.742a40.852,40.852,0,1,1-33.568-30.056l1.841-8.776a49.77,49.77,0,1,0,40.245,36.039Z" transform="translate(-55.783 -2271.302)" fill="url(#linear-gradient)"/>
          <path id="Path_3815" data-name="Path 3815" d="M167.113,2289.07l-7.049,5.539q-.714-.8-1.467-1.568l5.978-6.675Q165.892,2287.67,167.113,2289.07Zm3.076,3.906-7.051,5.54q.612.882,1.179,1.8l7.905-4.231Q171.263,2294.488,170.19,2292.976Zm-19.811-16.467-3.336,8.321c.648.309,1.289.63,1.918.971l4.726-7.609Q152.069,2277.291,150.379,2276.509Zm7.528,4.312-4.731,7.619q.874.622,1.717,1.289l5.982-6.68Q159.433,2281.882,157.906,2280.821Zm16.669,19.639-7.907,4.232q.448.976.846,1.975l8.525-2.8Q175.369,2302.133,174.575,2300.46Zm-34.2-18.1q1.04.287,2.057.625l3.338-8.327q-1.749-.6-3.554-1.078Z" transform="translate(-79.797 -2271.947)" fill="url(#linear-gradient)"/>
        </g>
      </g>
    </g>
  </g>
</svg>
