<svg xmlns="http://www.w3.org/2000/svg" xmlns:xlink="http://www.w3.org/1999/xlink" width="159" height="115" viewBox="0 0 159 115">
  <defs>
    <linearGradient id="linear-gradient" y1="0.5" x2="1" y2="0.5" gradientUnits="objectBoundingBox">
      <stop offset="0" stop-color="#009cdc"/>
      <stop offset="1" stop-color="#482080"/>
    </linearGradient>
    <clipPath id="clip-path">
      <path id="Path_3779" data-name="Path 3779" d="M128.831,683.326c-3.542.041-7.082.066-10.623.125-2.266.038-4.535.082-6.8.159-.8.028-1.612.058-2.415.108a7.81,7.81,0,0,0-1.121.107,7.246,7.246,0,0,0-2.113,1.466,16.409,16.409,0,0,0-1.32,1.35,6.626,6.626,0,0,0-.567.724c.01.088.028.185.04.26.045.273.1.546.158.816.177.842.379,1.681.584,2.516.579,2.35,1.2,4.693,1.847,7.026s1.3,4.655,2.009,6.963c.252.821.509,1.646.791,2.458a7.5,7.5,0,0,0,.438,1.118,3.237,3.237,0,0,0,1.37,1.107,3.487,3.487,0,0,0,1.234.328h32.98a3.486,3.486,0,0,0,1.235-.328,3.234,3.234,0,0,0,1.367-1.1,7.512,7.512,0,0,0,.44-1.122c.282-.812.54-1.636.791-2.458.708-2.308,1.368-4.635,2.009-6.963s1.269-4.675,1.847-7.026c.206-.835.407-1.674.585-2.516.057-.271.112-.544.158-.816.012-.075.029-.172.039-.26a6.455,6.455,0,0,0-.567-.724,16.285,16.285,0,0,0-1.32-1.35,7.271,7.271,0,0,0-2.112-1.466,7.84,7.84,0,0,0-1.122-.107c-.8-.05-1.611-.08-2.415-.108-2.266-.077-4.534-.121-6.8-.159C135.912,683.392,132.373,683.368,128.831,683.326Z" transform="translate(-103.87 -683.326)" fill="none" clip-rule="evenodd"/>
    </clipPath>
  </defs>
  <g id="icon1" transform="translate(-5392 -530)">
    <rect id="Rectangle_1423" data-name="Rectangle 1423" width="159" height="115" transform="translate(5392 530)" fill="#fff"/>
    <g id="Group_1452" data-name="Group 1452" transform="translate(5178.642 31.888)">
      <g id="Group_1446" data-name="Group 1446">
        <g id="Group_1445" data-name="Group 1445">
          <g id="Group_1349" data-name="Group 1349" transform="translate(0 -118)">
            <g id="Group_1329" data-name="Group 1329" transform="translate(235.358 679.3)">
              <path id="Rectangle_1348" data-name="Rectangle 1348" d="M8.041,0h2.036a8.041,8.041,0,0,1,8.041,8.041V26.332a8.041,8.041,0,0,1-8.041,8.041H8.042A8.042,8.042,0,0,1,0,26.332V8.041A8.041,8.041,0,0,1,8.041,0Z" transform="translate(0 0)" fill="#323232"/>
              <path id="Rectangle_1349" data-name="Rectangle 1349" d="M8.041,0h2.036a8.042,8.042,0,0,1,8.042,8.042V26.332a8.041,8.041,0,0,1-8.041,8.041H8.042A8.042,8.042,0,0,1,0,26.332V8.041A8.041,8.041,0,0,1,8.041,0Z" transform="translate(97.788 0)" fill="#323232"/>
            </g>
            <path id="Path_3771" data-name="Path 3771" d="M100.921,730.986c15.992.207,37.779.208,53.843,0-2.169-1.284-5.925-3.338-5.925-3.338l-21-.026-21,.026S103.091,729.7,100.921,730.986Z" transform="translate(165.403 -23.689)" fill="#5b5c5e" fill-rule="evenodd"/>
            <path id="Path_3772" data-name="Path 3772" d="M172.5,664.74c-.369-1-3.373-5.375-3.847-6.139a.729.729,0,0,0-.105-.116l-.04-.036c-.047-.042-.1-.088-.17-.139l-.029-.023c-.082-.062-.177-.13-.282-.2l-.057-.039q-.144-.1-.312-.209l-.035-.024h0c-2.607-1.705-9.179-5.3-9.179-5.3l-.158-.34.531-.035a8.048,8.048,0,0,0,1.331.9,45,45,0,0,0,7.575-1.067c.9-.408,1.607-.816,1.726-2.016.013-.132.018-.259.02-.382h0a.162.162,0,0,1,0-.019,4.489,4.489,0,0,0-.039-.635c0-.033-.008-.065-.013-.1a4.317,4.317,0,0,0-.117-.54c-.009-.031-.018-.059-.026-.089a4.715,4.715,0,0,0-.169-.467c-.009-.021-.018-.04-.027-.06-.064-.148-.132-.286-.2-.411-1.206-2.268-6.956-2.41-9.155-2.306a1.413,1.413,0,0,0-1,.541,10.414,10.414,0,0,0-.487,2.951l-1.684.034c-2.455-5.223-6.514-13.751-7.241-14.586-1.054-1.212-1.633-1.475-7.167-2.476-9.5-1.719-42.845-1.719-52.341,0-5.533,1-6.113,1.265-7.167,2.476-.727.836-4.788,9.367-7.242,14.589l-1.84-.037a10.394,10.394,0,0,0-.488-2.951,1.412,1.412,0,0,0-1-.541c-2.2-.1-7.95.038-9.156,2.306-.066.125-.132.263-.2.409-.009.021-.019.041-.028.063a4.679,4.679,0,0,0-.168.465c-.01.031-.019.061-.028.092a4.412,4.412,0,0,0-.117.538c-.005.032-.008.065-.012.1a4.47,4.47,0,0,0-.039.634c0,.007,0,.012,0,.019h0c0,.124.008.251.021.382.118,1.2.83,1.608,1.726,2.016a45,45,0,0,0,7.575,1.067,8.067,8.067,0,0,0,1.331-.9l.685.045-.153.33s-6.572,3.593-9.178,5.3h0l-.032.021c-.113.074-.218.145-.315.211l-.059.041c-.1.072-.2.14-.281.2l-.031.024c-.066.05-.121.1-.168.137l-.042.037a.658.658,0,0,0-.1.115c-.475.764-3.478,5.138-3.847,6.139s-1.371,13.648-.58,20.71,1.686,13.227,2.424,14.122,4.532,2.582,6.534,3c5.607,1.18,90.684,1.18,96.291,0,2-.422,5.8-2.108,6.534-3s1.633-7.061,2.424-14.122S172.864,665.741,172.5,664.74Z" transform="translate(177.426 3.992)" fill-rule="evenodd" fill="url(#linear-gradient)"/>
            <path id="Path_3773" data-name="Path 3773" d="M93.395,634.286a8.8,8.8,0,0,0-4.427,3.689c-.553.765-6.455,14.716-6.455,14.716s9.748-.869,22.132-1.343c12.674-.485,23.571-.485,36.245,0,12.384.474,22.133,1.343,22.133,1.343s-5.9-13.951-6.456-14.716a8.976,8.976,0,0,0-4.426-3.689C144.237,631.294,101.859,631.172,93.395,634.286Z" transform="translate(170.629 3.459)" fill="#c7c9cb" fill-rule="evenodd"/>
            <path id="Path_3774" data-name="Path 3774" d="M67.617,679.281a1.3,1.3,0,0,0-1.318.4c-.5.526-1.133,8.721-.8,8.958s5.757.948,6.35,1.027,13.464-1.949,13.78-2.081,5.191-4.875,4.928-5.033C90.143,682.3,69.675,679.211,67.617,679.281Z" transform="translate(175.485 -9.957)" fill="#e1e1e1" fill-rule="evenodd"/>
            <path id="Path_3775" data-name="Path 3775" d="M66.811,680.132a2.492,2.492,0,0,0-.124.44c-.072.327-.124.662-.172.992-.132.915-.226,1.843-.306,2.763s-.145,1.868-.177,2.8c-.012.337-.02.677-.013,1.013,0,.079,0,.216.013.332.066.016.135.03.185.041.236.052.476.094.714.136.659.115,1.321.216,1.983.313,1.05.155,2.1.3,3.152.437a2.023,2.023,0,0,0,.219-.014c.168-.015.334-.034.5-.054.526-.063,1.053-.136,1.578-.209,1.5-.21,2.992-.436,4.485-.667q2.27-.349,4.537-.719c.525-.086,1.049-.173,1.572-.264q.245-.043.488-.089c.055-.011.117-.021.174-.034.085-.061.184-.154.256-.219.2-.175.394-.357.588-.539.541-.506,1.073-1.024,1.6-1.546s1.021-1.024,1.512-1.552c.147-.158.294-.319.435-.483-.206-.039-.412-.076-.617-.112-.874-.153-1.752-.3-2.629-.435q-3.8-.607-7.615-1.156c-2.425-.353-4.855-.7-7.288-1.005-.881-.112-1.764-.22-2.647-.31-.3-.03-.6-.059-.894-.079a5.148,5.148,0,0,0-.515-.019h-.039C67.314,679.867,67.149,679.786,66.811,680.132Z" transform="translate(175.312 -10.131)" fill="#7ccddc" fill-rule="evenodd"/>
            <path id="Path_3776" data-name="Path 3776" d="M74.017,688.24a3.518,3.518,0,1,0-3.518-3.517A3.525,3.525,0,0,0,74.017,688.24Z" transform="translate(174.039 -10.511)" fill="#fff" fill-rule="evenodd"/>
            <path id="Path_3777" data-name="Path 3777" d="M128.487,682.125h0s-19.678.132-21.18.527-4.347,3.4-4.638,4.163,5.112,20.5,6.007,21.843a4.483,4.483,0,0,0,3.32,1.818h32.98a4.482,4.482,0,0,0,3.32-1.818c.9-1.343,6.3-21.079,6.007-21.843s-3.135-3.767-4.638-4.163S128.489,682.125,128.487,682.125Z" transform="translate(164.909 -10.772)" fill="#c6c8c9" fill-rule="evenodd"/>
            <path id="Path_3778" data-name="Path 3778" d="M128.831,683.326c-3.542.041-7.082.066-10.623.125-2.266.038-4.535.082-6.8.159-.8.028-1.612.058-2.415.108a7.81,7.81,0,0,0-1.121.107,7.246,7.246,0,0,0-2.113,1.466,16.409,16.409,0,0,0-1.32,1.35,6.626,6.626,0,0,0-.567.724c.01.088.028.185.04.26.045.273.1.546.158.816.177.842.379,1.681.584,2.516.579,2.35,1.2,4.693,1.847,7.026s1.3,4.655,2.009,6.963c.252.821.509,1.646.791,2.458a7.5,7.5,0,0,0,.438,1.118,3.237,3.237,0,0,0,1.37,1.107,3.487,3.487,0,0,0,1.234.328h32.98a3.486,3.486,0,0,0,1.235-.328,3.234,3.234,0,0,0,1.367-1.1,7.512,7.512,0,0,0,.44-1.122c.282-.812.54-1.636.791-2.458.708-2.308,1.368-4.635,2.009-6.963s1.269-4.675,1.847-7.026c.206-.835.407-1.674.585-2.516.057-.271.112-.544.158-.816.012-.075.029-.172.039-.26a6.455,6.455,0,0,0-.567-.724,16.285,16.285,0,0,0-1.32-1.35,7.271,7.271,0,0,0-2.112-1.466,7.84,7.84,0,0,0-1.122-.107c-.8-.05-1.611-.08-2.415-.108-2.266-.077-4.534-.121-6.8-.159C135.912,683.392,132.373,683.368,128.831,683.326Z" transform="translate(164.566 -11.113)" fill="#5b5c5e" fill-rule="evenodd"/>
            <g id="Group_1333" data-name="Group 1333" transform="translate(268.436 672.213)">
              <g id="Group_1332" data-name="Group 1332" transform="translate(0 0)" clip-path="url(#clip-path)">
                <g id="Group_1331" data-name="Group 1331" transform="translate(-5.577 1.195)">
                  <g id="Group_1330" data-name="Group 1330">
                    <rect id="Rectangle_1350" data-name="Rectangle 1350" width="61.075" height="1.054" fill="#c6c8c9"/>
                    <rect id="Rectangle_1351" data-name="Rectangle 1351" width="61.075" height="1.054" transform="translate(0 2.898)" fill="#c6c8c9"/>
                    <rect id="Rectangle_1352" data-name="Rectangle 1352" width="61.075" height="1.054" transform="translate(0 5.797)" fill="#c6c8c9"/>
                    <rect id="Rectangle_1353" data-name="Rectangle 1353" width="61.075" height="1.054" transform="translate(0 8.695)" fill="#c6c8c9"/>
                    <rect id="Rectangle_1354" data-name="Rectangle 1354" width="61.075" height="1.054" transform="translate(0 11.593)" fill="#c6c8c9"/>
                    <rect id="Rectangle_1355" data-name="Rectangle 1355" width="61.075" height="1.054" transform="translate(0 14.492)" fill="#c6c8c9"/>
                    <rect id="Rectangle_1356" data-name="Rectangle 1356" width="61.075" height="1.054" transform="translate(0 17.39)" fill="#c6c8c9"/>
                    <rect id="Rectangle_1357" data-name="Rectangle 1357" width="61.075" height="1.054" transform="translate(0 20.288)" fill="#c6c8c9"/>
                    <rect id="Rectangle_1358" data-name="Rectangle 1358" width="61.075" height="1.054" transform="translate(0 23.186)" fill="#c6c8c9"/>
                  </g>
                </g>
              </g>
            </g>
            <path id="Path_3780" data-name="Path 3780" d="M91.657,710.6c.456,1.209.882,2.45,1.26,3.684.3.968,1.03,3.289.666,4.246a4.152,4.152,0,0,1-2.166,1.795,17.017,17.017,0,0,1-2.284.881l-.13.039-.136,0q-5.5-.111-11-.317c-2.431-.091-4.872-.192-7.3-.362-.85-.059-1.71-.124-2.556-.231a3.565,3.565,0,0,1-1.592-.445c-1.088-.9-.933-3.71-.833-4.978a18.55,18.55,0,0,1,.468-3.034c.3-1.182.879-3.162,2.234-3.539a6.046,6.046,0,0,1,1.356.006c.854.051,1.707.113,2.56.176,2.519.187,5.037.39,7.554.6q5.587.456,11.171.935l.538.046Z" transform="translate(175.454 -18.201)" fill="#e1e1e1" fill-rule="evenodd"/>
            <path id="Path_3781" data-name="Path 3781" d="M174.628,710.6c-.455,1.209-.882,2.45-1.26,3.684-.3.968-1.03,3.289-.666,4.246a4.148,4.148,0,0,0,2.166,1.795,17.026,17.026,0,0,0,2.285.881l.13.039.136,0q5.5-.111,11-.317c2.432-.091,4.872-.192,7.3-.362.851-.059,1.711-.124,2.556-.231a3.568,3.568,0,0,0,1.593-.445c1.087-.9.932-3.71.832-4.978a18.553,18.553,0,0,0-.468-3.034c-.3-1.182-.879-3.162-2.234-3.539a6.04,6.04,0,0,0-1.356.006c-.854.051-1.708.113-2.56.176-2.519.187-5.037.39-7.555.6q-5.586.456-11.171.935l-.537.046Z" transform="translate(145.053 -18.201)" fill="#e1e1e1" fill-rule="evenodd"/>
            <path id="Path_3782" data-name="Path 3782" d="M91.2,711.237s2.349,6.217,1.928,7.324-3.9,2.161-3.9,2.161S68.2,720.3,67.3,719.562s-.633-4.954-.079-7.14,1.159-2.793,1.633-2.925S91.2,711.237,91.2,711.237Z" transform="translate(175.113 -18.541)" fill="#c7c9cb" fill-rule="evenodd"/>
            <path id="Path_3783" data-name="Path 3783" d="M175.766,711.237s-2.349,6.217-1.927,7.324,3.9,2.161,3.9,2.161,21.026-.422,21.922-1.159.632-4.954.079-7.14-1.159-2.793-1.633-2.925S175.766,711.237,175.766,711.237Z" transform="translate(144.716 -18.541)" fill="#c7c9cb" fill-rule="evenodd"/>
            <path id="Path_3784" data-name="Path 3784" d="M73.786,719.431a3.538,3.538,0,1,0-3.767-3.531A3.663,3.663,0,0,0,73.786,719.431Z" transform="translate(174.176 -19.358)" fill="#323232" fill-rule="evenodd"/>
            <path id="Path_3785" data-name="Path 3785" d="M200.679,719.431a3.538,3.538,0,1,0-3.768-3.531A3.662,3.662,0,0,0,200.679,719.431Z" transform="translate(138.152 -19.358)" fill="#323232" fill-rule="evenodd"/>
            <path id="Path_3786" data-name="Path 3786" d="M199.862,679.281a1.294,1.294,0,0,1,1.317.4c.5.526,1.134,8.721.8,8.958s-5.758.948-6.35,1.027-13.464-1.949-13.78-2.081-5.19-4.875-4.927-5.033C177.336,682.3,197.8,679.211,199.862,679.281Z" transform="translate(143.828 -9.957)" fill="#e1e1e1" fill-rule="evenodd"/>
            <path id="Path_3787" data-name="Path 3787" d="M201.129,680.132a2.555,2.555,0,0,1,.124.44c.071.327.124.662.172.992.132.915.226,1.843.305,2.763s.145,1.868.178,2.8c.011.337.02.677.013,1.013,0,.079,0,.216-.013.332-.067.016-.135.03-.185.041-.237.052-.476.094-.715.136-.659.115-1.321.216-1.983.313-1.049.155-2.1.3-3.152.437a2.049,2.049,0,0,1-.22-.014c-.167-.015-.334-.034-.5-.054-.527-.063-1.053-.136-1.579-.209-1.5-.21-2.991-.436-4.485-.667q-2.27-.349-4.537-.719c-.524-.086-1.048-.173-1.572-.264q-.244-.043-.488-.089c-.054-.011-.117-.021-.174-.034-.085-.061-.183-.154-.256-.219-.2-.175-.394-.357-.588-.539-.54-.506-1.073-1.024-1.6-1.546s-1.02-1.024-1.512-1.552c-.148-.158-.294-.319-.436-.483q.308-.058.618-.112c.874-.153,1.752-.3,2.628-.435q3.8-.607,7.615-1.156c2.426-.353,4.856-.7,7.288-1.005.881-.112,1.764-.22,2.647-.31.3-.03.6-.059.894-.079.168-.011.348-.025.516-.019h.039C200.627,679.867,200.792,679.786,201.129,680.132Z" transform="translate(143.541 -10.131)" fill="#7ccddc" fill-rule="evenodd"/>
            <circle id="Ellipse_233" data-name="Ellipse 233" cx="3.518" cy="3.518" r="3.518" transform="translate(334.57 671.495) rotate(-11.902)" fill="#fff"/>
            <path id="Path_3788" data-name="Path 3788" d="M164.554,634.286c-4.918-1.861-23.18-2.612-38.316-2.163l13.817,13.817,5.159,5.159c2.637.06,5.321.142,8.089.249,12.384.474,22.133,1.343,22.133,1.343s-5.9-13.951-6.456-14.716A8.976,8.976,0,0,0,164.554,634.286Z" transform="translate(158.215 3.459)" fill="#323232" fill-rule="evenodd"/>
          </g>
        </g>
      </g>
    </g>
  </g>
</svg>
