<svg xmlns="http://www.w3.org/2000/svg" width="138" height="138" viewBox="0 0 138 138">
  <g id="step6" transform="translate(-849 1957)">
    <rect id="Rectangle_1470" data-name="Rectangle 1470" width="138" height="138" transform="translate(849 -1957)" fill="#fff"/>
    <g id="step6-2" data-name="step6" transform="translate(720.017 -3387.403)">
      <path id="Path_4335" data-name="Path 4335" d="M65.853,418.78v8.406c21,2.081,33.5,9.372,33.5,14.844,0,6.45-17.3,15.443-45.474,15.443S8.413,448.48,8.413,442.03c0-5.514,12.671-12.87,33.944-14.892v-8.4C20.207,420.81,0,428.815,0,442.03c0,15.494,27.761,23.856,53.882,23.856s53.887-8.362,53.887-23.856C107.769,428.9,87.83,420.92,65.853,418.78Z" transform="translate(140.983 1085.29)" fill="#482080"/>
      <path id="Path_4336" data-name="Path 4336" d="M329.973,123.881a3.968,3.968,0,0,0-3.829-.213l-6.975,3.384a23.558,23.558,0,0,1-21.085-.264A23.548,23.548,0,0,0,276.13,127v-2.558a4.231,4.231,0,1,0-8.461,0v75.79a4.231,4.231,0,0,0,8.461,0V161.55a23.536,23.536,0,0,1,21.955-.217,23.557,23.557,0,0,0,21.085.265l10.425-5.058a3.95,3.95,0,0,0,2.232-3.557v-25.75A3.954,3.954,0,0,0,329.973,123.881Z" transform="translate(-76.813 1328.193)" fill="#009cdc"/>
    </g>
  </g>
</svg>
