<svg xmlns="http://www.w3.org/2000/svg" xmlns:xlink="http://www.w3.org/1999/xlink" width="30.437" height="30.437" viewBox="0 0 30.437 30.437">
  <defs>
    <linearGradient id="linear-gradient" x1="0.5" x2="0.5" y2="1" gradientUnits="objectBoundingBox">
      <stop offset="0" stop-color="#482080"/>
      <stop offset="1" stop-color="#009cdc"/>
    </linearGradient>
  </defs>
  <g id="Group_1400" data-name="Group 1400" transform="translate(-1039.925 -3929.282)">
    <g id="Group_1398" data-name="Group 1398" transform="translate(1039.925 3929.282)">
      <rect id="Rectangle_131" data-name="Rectangle 131" width="30.437" height="30.437" rx="15.218" transform="translate(0 0)" fill="url(#linear-gradient)"/>
    </g>
    <path id="Path_4026" data-name="Path 4026" d="M2.353,0h9.313a2.468,2.468,0,0,1,2.353,2.568V9.2a2.468,2.468,0,0,1-2.353,2.568H2.353A2.468,2.468,0,0,1,0,9.2V2.568A2.468,2.468,0,0,1,2.353,0Z" transform="translate(1048.334 3938.743)" fill="none" stroke="#fff" stroke-width="1"/>
    <path id="Path_4027" data-name="Path 4027" d="M460.388,599.629l3.544,2.046-3.544,2.046Z" transform="translate(593.796 3342.903)" fill="#fff" stroke="#fff" stroke-linecap="square" stroke-linejoin="round" stroke-miterlimit="10" stroke-width="1"/>
  </g>
</svg>
